Date,Timestamp,Subcampaign,Value,Order ID,Touch-time,User Agent,Platform
"2022/08/23","08/23/2022 17:49:45","Dan Bongino Show Podcast",0,"[order_number]","08/23/2022 16:23:43","Mozilla/5.0 (iPhone; CPU iPhone OS 15_6 like Mac OS X) AppleWebKit/605.1.15 (KHTML, like Gecko) Version/15.6 Mobile/15E148 Safari/604.1","iOS Mobile Phone"
"2022/08/24","08/24/2022 04:04:51","Dan Bongino Show Podcast",0,"[order_number]","08/23/2022 19:09:32","Mozilla/5.0 (Windows NT 10.0; Win64; x64) AppleWebKit/537.36 (KHTML, like Gecko) Chrome/104.0.5112.102 Safari/537.36 Edg/104.0.1293.63","Windows 10 Desktop"
"2022/08/24","08/24/2022 22:54:28","Dan Bongino Show Podcast",0,"[order_number]","08/24/2022 15:38:17","Mozilla/5.0 (Macintosh; Intel Mac OS X 10_15_6) AppleWebKit/605.1.15 (KHTML, like Gecko) Version/15.4 Safari/605.1.15","macOS Desktop"
"2022/08/25","08/25/2022 02:03:15","Dan Bongino Show Podcast",0,"[order_number]","08/24/2022 11:05:38","Mozilla/5.0 (Windows NT 10.0; Win64; x64) AppleWebKit/537.36 (KHTML, like Gecko) Chrome/104.0.5112.102 Safari/537.36 Edg/104.0.1293.63","Windows 10 Desktop"
"2022/09/02","09/02/2022 14:47:15","Dan Bongino Show Podcast",0,"[order_number]","08/31/2022 12:56:44","Mozilla/5.0 (Linux; Android 12; SM-A326U) AppleWebKit/537.36 (KHTML, like Gecko) Chrome/103.0.0.0 Mobile Safari/537.36","Android Mobile Phone"
"2022/09/03","09/03/2022 02:56:01","Dan Bongino Show Podcast",0,"[order_number]","08/30/2022 18:34:09","Mozilla/5.0 (iPhone; CPU iPhone OS 15_6_1 like Mac OS X) AppleWebKit/605.1.15 (KHTML, like Gecko) Version/15.6.1 Mobile/15E148 Safari/604.1","iOS Mobile Phone"
"2022/09/06","09/06/2022 15:27:20","Dan Bongino Show Podcast",0,"[order_id]","08/31/2022 20:20:03","Mozilla/5.0 (iPhone; CPU iPhone OS 15_6_1 like Mac OS X) AppleWebKit/605.1.15 (KHTML, like Gecko) Version/15.6.1 Mobile/15E148 Safari/604.1","iOS Mobile Phone"
"2022/09/07","09/07/2022 19:05:23","Dan Bongino Show Podcast",0,"[order_id]","09/07/2022 18:20:41","Mozilla/5.0 (Macintosh; Intel Mac OS X 10_15_7) AppleWebKit/605.1.15 (KHTML, like Gecko) Version/15.6.1 Safari/605.1.15","macOS Desktop"
"2022/09/08","09/08/2022 16:39:33","Dan Bongino Show Podcast",0,"[order_id]","09/07/2022 18:56:25","Mozilla/5.0 (Macintosh; Intel Mac OS X 10_15_6) AppleWebKit/605.1.15 (KHTML, like Gecko) Version/15.6.1 Safari/605.1.15","macOS Desktop"
"2022/09/11","09/11/2022 22:10:57","Dan Bongino Show Podcast",0,"[order_id]","09/09/2022 14:55:59","Mozilla/5.0 (iPhone; CPU iPhone OS 15_6_1 like Mac OS X) AppleWebKit/605.1.15 (KHTML, like Gecko) Version/15.6.1 Mobile/15E148 Safari/604.1","iOS Mobile Phone"
"2022/09/13","09/13/2022 05:47:29","Dan Bongino Show Podcast",0,"[order_id]","09/01/2022 20:54:57","Mozilla/5.0 (iPhone; CPU iPhone OS 15_6_1 like Mac OS X) AppleWebKit/605.1.15 (KHTML, like Gecko) Version/15.6.1 Mobile/15E148 Safari/604.1","iOS Mobile Phone"
"2022/09/14","09/14/2022 16:08:58","Dan Bongino Show Podcast",120,15895,"09/14/2022 05:13:07","Mozilla/5.0 (iPhone; CPU iPhone OS 15_6_1 like Mac OS X) AppleWebKit/605.1.15 (KHTML, like Gecko) Version/15.6.1 Mobile/15E148 Safari/604.1","iOS Mobile Phone"
"2022/09/14","09/14/2022 16:42:52","Dan Bongino Show Podcast",311.2,15780,"09/07/2022 21:45:34","Mozilla/5.0 (iPhone; CPU iPhone OS 15_6 like Mac OS X) AppleWebKit/605.1.15 (KHTML, like Gecko) CriOS/105.0.5195.100 Mobile/15E148 Safari/604.1","iOS Mobile Phone"
"2022/09/15","09/15/2022 10:12:41","Dan Bongino Show Podcast",0,"","09/15/2022 00:30:21","Mozilla/5.0 (iPhone; CPU iPhone OS 15_6_1 like Mac OS X) AppleWebKit/605.1.15 (KHTML, like Gecko) Version/15.6.1 Mobile/15E148 Safari/604.1","iOS Mobile Phone"
"2022/09/15","09/15/2022 14:56:04","Dan Bongino Show Podcast",127.5,15951,"09/07/2022 15:57:03","Mozilla/5.0 (iPhone; CPU iPhone OS 15_6_1 like Mac OS X) AppleWebKit/605.1.15 (KHTML, like Gecko) Version/15.6.1 Mobile/15E148 Safari/604.1","iOS Mobile Phone"
"2022/09/16","09/16/2022 20:06:24","Dan Bongino Show Podcast",150,16017,"09/16/2022 16:55:16","Mozilla/5.0 (Windows NT 10.0; Win64; x64) AppleWebKit/537.36 (KHTML, like Gecko) Chrome/105.0.0.0 Safari/537.36","Windows 10 Desktop"
"2022/09/17","09/17/2022 11:08:16","Dan Bongino Show Podcast",135,15942,"09/16/2022 23:24:36","Mozilla/5.0 (iPhone; CPU iPhone OS 15_6_1 like Mac OS X) AppleWebKit/605.1.15 (KHTML, like Gecko) Version/15.6 Mobile/15E148 DuckDuckGo/7 Safari/605.1.15","iOS Mobile Phone"
"2022/09/18","09/18/2022 15:11:50","Dan Bongino Show Podcast",0,"","09/18/2022 03:53:13","Mozilla/5.0 (Windows NT 10.0; Win64; x64) AppleWebKit/537.36 (KHTML, like Gecko) Chrome/105.0.0.0 Safari/537.36 Edg/105.0.1343.42","Windows 10 Desktop"
"2022/09/19","09/19/2022 18:45:10","Dan Bongino Show Podcast",128.4,16138,"09/19/2022 18:26:37","Mozilla/5.0 (Windows NT 10.0; Win64; x64) AppleWebKit/537.36 (KHTML, like Gecko) Chrome/105.0.0.0 Safari/537.36 Edg/105.0.1343.42","Windows 10 Desktop"
"2022/09/19","09/19/2022 20:08:18","Dan Bongino Show Podcast",135,16141,"09/19/2022 17:32:48","Mozilla/5.0 (Windows NT 10.0; Win64; x64) AppleWebKit/537.36 (KHTML, like Gecko) Chrome/105.0.0.0 Safari/537.36","Windows 10 Desktop"
"2022/09/20","09/20/2022 17:31:01","Dan Bongino Show Podcast",135,16141,"09/19/2022 17:59:40","Mozilla/5.0 (iPhone; CPU iPhone OS 15_6_1 like Mac OS X) AppleWebKit/605.1.15 (KHTML, like Gecko) Version/15.6.1 Mobile/15E148 Safari/604.1","iOS Mobile Phone"
"2022/09/20","09/20/2022 20:31:26","Dan Bongino Show Podcast",159.2,16176,"09/20/2022 11:48:01","Mozilla/5.0 (Macintosh; Intel Mac OS X 10_15_6) AppleWebKit/605.1.15 (KHTML, like Gecko) Version/15.6.1 Safari/605.1.15","macOS Desktop"
"2022/09/22","09/22/2022 00:24:55","Dan Bongino Show Podcast",120,16159,"09/19/2022 10:04:19","Mozilla/5.0 (iPhone; CPU iPhone OS 15_6_1 like Mac OS X) AppleWebKit/605.1.15 (KHTML, like Gecko) Version/15.6.1 Mobile/15E148 Safari/604.1","iOS Mobile Phone"
"2022/09/22","09/22/2022 02:09:35","Dan Bongino Show Podcast",120,16237,"09/19/2022 23:43:58","Mozilla/5.0 (iPhone; CPU iPhone OS 15_7 like Mac OS X) AppleWebKit/605.1.15 (KHTML, like Gecko) Version/15.6,2 Mobile/15E148 Safari/604.1","iOS Mobile Phone"
"2022/09/22","09/22/2022 13:01:07","Dan Bongino Show Podcast",0,"","09/21/2022 15:40:30","Mozilla/5.0 (iPhone; CPU iPhone OS 15_6_1 like Mac OS X) AppleWebKit/605.1.15 (KHTML, like Gecko) Version/15.6.1 Mobile/15E148 Safari/604.1","iOS Mobile Phone"
"2022/09/23","09/23/2022 13:53:40","Dan Bongino Show Podcast",80.1,16306,"09/19/2022 21:58:04","Mozilla/5.0 (iPhone; CPU iPhone OS 15_6_1 like Mac OS X) AppleWebKit/605.1.15 (KHTML, like Gecko) Version/15.6.1 Mobile/15E148 Safari/604.1","iOS Mobile Phone"
"2022/09/24","09/24/2022 00:39:28","Dan Bongino Show Podcast",127.5,15951,"09/20/2022 14:28:25","Mozilla/5.0 (iPhone; CPU iPhone OS 15_6 like Mac OS X) AppleWebKit/605.1.15 (KHTML, like Gecko) CriOS/105.0.5195.147 Mobile/15E148 Safari/604.1","iOS Mobile Phone"
"2022/09/24","09/24/2022 13:38:42","Dan Bongino Show Podcast",144.45,16298,"09/22/2022 00:12:07","Mozilla/5.0 (iPhone; CPU iPhone OS 15_6_1 like Mac OS X) AppleWebKit/605.1.15 (KHTML, like Gecko) Version/15.6.1 Mobile/15E148 Safari/604.1","iOS Mobile Phone"
"2022/09/26","09/26/2022 23:15:17","Dan Bongino Show Podcast",330,16436,"09/15/2022 03:51:55","Mozilla/5.0 (iPhone; CPU iPhone OS 15_6 like Mac OS X) AppleWebKit/605.1.15 (KHTML, like Gecko) GSA/228.0.471065565 Mobile/15E148 Safari/604.1","iOS Mobile Phone"
"2022/09/27","09/27/2022 16:39:01","Dan Bongino Show Podcast",120,15895,"09/27/2022 16:23:29","Mozilla/5.0 (iPhone; CPU iPhone OS 15_6_1 like Mac OS X) AppleWebKit/605.1.15 (KHTML, like Gecko) Version/15.6.1 Mobile/15E148 Safari/604.1","iOS Mobile Phone"
"2022/09/28","09/28/2022 15:29:27","Dan Bongino Show Podcast",76.54,16431,"09/28/2022 01:47:28","Mozilla/5.0 (Windows NT 10.0; Win64; x64) AppleWebKit/537.36 (KHTML, like Gecko) Chrome/105.0.0.0 Safari/537.36 Edg/105.0.1343.53","Windows 10 Desktop"
"2022/09/28","09/28/2022 18:36:26","Dan Bongino Show Podcast",0,"","09/28/2022 03:46:31","Mozilla/5.0 (iPhone; CPU iPhone OS 16_0_2 like Mac OS X) AppleWebKit/605.1.15 (KHTML, like Gecko) Version/16.0 Mobile/15E148 Safari/604.1","iOS Mobile Phone"
"2022/09/28","09/28/2022 19:24:04","Dan Bongino Show Podcast",127.5,16311,"09/19/2022 17:19:12","Mozilla/5.0 (iPhone; CPU iPhone OS 16_0_2 like Mac OS X) AppleWebKit/605.1.15 (KHTML, like Gecko) Version/16.0 Mobile/15E148 Safari/604.1","iOS Mobile Phone"
"2022/09/28","09/28/2022 21:11:04","Dan Bongino Show Podcast",135,16345,"09/23/2022 12:56:40","Mozilla/5.0 (iPhone; CPU iPhone OS 15_6 like Mac OS X) AppleWebKit/605.1.15 (KHTML, like Gecko) CriOS/105.0.5195.147 Mobile/15E148 Safari/604.1","iOS Mobile Phone"
"2022/09/29","09/29/2022 10:01:43","Dan Bongino Show Podcast",0,"","09/22/2022 12:54:25","Mozilla/5.0 (iPhone; CPU iPhone OS 16_0 like Mac OS X) AppleWebKit/605.1.15 (KHTML, like Gecko) CriOS/105.0.5195.147 Mobile/15E148 Safari/604.1","iOS Mobile Phone"
"2022/09/29","09/29/2022 19:11:33","Dan Bongino Show Podcast",225.2,16591,"09/29/2022 03:24:18","Mozilla/5.0 (iPhone; CPU iPhone OS 15_6_1 like Mac OS X) AppleWebKit/605.1.15 (KHTML, like Gecko) Version/15.6.1 Mobile/15E148 Safari/604.1","iOS Mobile Phone"
"2022/09/29","09/29/2022 23:27:01","Dan Bongino Show Podcast",135,16604,"09/28/2022 22:08:18","Mozilla/5.0 (Linux; Android 12; SM-S906U) AppleWebKit/537.36 (KHTML, like Gecko) Chrome/105.0.0.0 Mobile Safari/537.36","Android Mobile Phone"
"2022/09/30","09/30/2022 01:17:37","Dan Bongino Show Podcast",135,16554,"09/29/2022 02:52:22","Mozilla/5.0 (iPhone; CPU iPhone OS 15_6_1 like Mac OS X) AppleWebKit/605.1.15 (KHTML, like Gecko) Version/15.6.1 Mobile/15E148 Safari/604.1","iOS Mobile Phone"
"2022/10/02","10/02/2022 02:59:15","Dan Bongino Show Podcast",0,"","09/27/2022 19:56:52","Mozilla/5.0 (iPhone; CPU iPhone OS 15_6_1 like Mac OS X) AppleWebKit/605.1.15 (KHTML, like Gecko) Version/15.6.1 Mobile/15E148 Safari/604.1","iOS Mobile Phone"
"2022/10/02","10/02/2022 10:01:08","Dan Bongino Show Podcast",0,"","09/29/2022 19:51:49","Mozilla/5.0 (iPhone; CPU iPhone OS 15_6 like Mac OS X) AppleWebKit/605.1.15 (KHTML, like Gecko) CriOS/105.0.5195.147 Mobile/15E148 Safari/604.1","iOS Mobile Phone"
"2022/10/02","10/02/2022 21:49:16","Dan Bongino Show Podcast",247.35,16730,"09/28/2022 12:27:30","Mozilla/5.0 (iPhone; CPU iPhone OS 15_6 like Mac OS X) AppleWebKit/605.1.15 (KHTML, like Gecko) CriOS/105.0.5195.147 Mobile/15E148 Safari/604.1","iOS Mobile Phone"
"2022/10/04","10/04/2022 15:07:42","Dan Bongino Show Podcast",135,16799,"10/04/2022 14:28:21","Mozilla/5.0 (iPhone; CPU iPhone OS 15_6_1 like Mac OS X) AppleWebKit/605.1.15 (KHTML, like Gecko) Version/15.6.1 Mobile/15E148 Safari/604.1","iOS Mobile Phone"
"2022/10/04","10/04/2022 18:05:45","Dan Bongino Show Podcast",127.5,16818,"10/04/2022 17:45:57","Mozilla/5.0 (iPhone; CPU iPhone OS 15_6_1 like Mac OS X) AppleWebKit/605.1.15 (KHTML, like Gecko) Version/15.6.1 Mobile/15E148 Safari/604.1","iOS Mobile Phone"
"2022/10/04","10/04/2022 21:51:10","Dan Bongino Show Podcast",212.93,16831,"10/04/2022 19:13:33","Mozilla/5.0 (Windows NT 10.0; Win64; x64) AppleWebKit/537.36 (KHTML, like Gecko) Chrome/105.0.0.0 Safari/537.36 Edg/105.0.1343.53","Windows 10 Desktop"
"2022/10/05","10/05/2022 01:37:01","Dan Bongino Show Podcast",161.6,16844,"10/05/2022 01:21:58","Mozilla/5.0 (Linux; Android 10; SM-G960U) AppleWebKit/537.36 (KHTML, like Gecko) Chrome/104.0.0.0 Mobile Safari/537.36","Android Mobile Phone"
"2022/10/05","10/05/2022 01:59:36","Dan Bongino Show Podcast",127.5,16818,"10/04/2022 18:47:36","Mozilla/5.0 (iPhone; CPU iPhone OS 15_6_1 like Mac OS X) AppleWebKit/605.1.15 (KHTML, like Gecko) Version/15.6.1 Mobile/15E148 Safari/604.1","iOS Mobile Phone"
"2022/10/05","10/05/2022 13:08:34","Dan Bongino Show Podcast",191.2,16863,"10/04/2022 20:47:37","Mozilla/5.0 (Macintosh; Intel Mac OS X 10_15_7) AppleWebKit/605.1.15 (KHTML, like Gecko) Version/14.1 Safari/605.1.15","macOS Desktop"
"2022/10/05","10/05/2022 15:56:07","Dan Bongino Show Podcast",75.65,16828,"10/05/2022 04:57:17","Mozilla/5.0 (iPhone; CPU iPhone OS 15_6_1 like Mac OS X) AppleWebKit/605.1.15 (KHTML, like Gecko) Version/15.6.1 Mobile/15E148 Safari/604.1","iOS Mobile Phone"
"2022/10/05","10/05/2022 16:13:54","Dan Bongino Show Podcast",136.1,16867,"10/05/2022 13:40:55","Mozilla/5.0 (iPhone; CPU iPhone OS 15_6_1 like Mac OS X) AppleWebKit/605.1.15 (KHTML, like Gecko) Version/15.6.1 Mobile/15E148 Safari/604.1","iOS Mobile Phone"
"2022/10/05","10/05/2022 17:53:42","Dan Bongino Show Podcast",395.9,16872,"10/04/2022 19:29:35","Mozilla/5.0 (iPhone; CPU iPhone OS 15_6_1 like Mac OS X) AppleWebKit/605.1.15 (KHTML, like Gecko) Version/15.6.1 Mobile/15E148 Safari/604.1","iOS Mobile Phone"
"2022/10/06","10/06/2022 00:06:51","Dan Bongino Show Podcast",79.2,16876,"10/05/2022 02:04:47","Mozilla/5.0 (iPhone; CPU iPhone OS 15_6_1 like Mac OS X) AppleWebKit/605.1.15 (KHTML, like Gecko) Version/15.6.1 Mobile/15E148 Safari/604.1","iOS Mobile Phone"
"2022/10/06","10/06/2022 01:03:41","Dan Bongino Show Podcast",0,"","10/04/2022 22:25:44","Mozilla/5.0 (iPhone; CPU iPhone OS 15_6_1 like Mac OS X) AppleWebKit/605.1.15 (KHTML, like Gecko) Version/15.6.1 Mobile/15E148 Safari/604.1","iOS Mobile Phone"
"2022/10/06","10/06/2022 11:40:23","Dan Bongino Show Podcast",150,16904,"10/03/2022 16:50:31","Mozilla/5.0 (iPhone; CPU iPhone OS 15_6 like Mac OS X) AppleWebKit/605.1.15 (KHTML, like Gecko) CriOS/105.0.5195.147 Mobile/15E148 Safari/604.1","iOS Mobile Phone"
"2022/10/06","10/06/2022 16:31:10","Dan Bongino Show Podcast",150,16923,"10/06/2022 00:17:53","Mozilla/5.0 (Linux; Android 12; SM-S908U) AppleWebKit/537.36 (KHTML, like Gecko) Chrome/101.0.4951.64 Mobile Safari/537.36 EdgA/101.0.1210.53","Android Mobile Phone"
"2022/10/06","10/06/2022 16:32:08","Dan Bongino Show Podcast",135,16811,"10/05/2022 14:00:52","Mozilla/5.0 (iPhone; CPU iPhone OS 15_6_1 like Mac OS X) AppleWebKit/605.1.15 (KHTML, like Gecko) Version/15.6.1 Mobile/15E148 Safari/604.1","iOS Mobile Phone"
"2022/10/06","10/06/2022 16:52:22","Dan Bongino Show Podcast",190.1,16700,"10/06/2022 14:14:08","Mozilla/5.0 (iPhone; CPU iPhone OS 15_6_1 like Mac OS X) AppleWebKit/605.1.15 (KHTML, like Gecko) Version/15.6.1 Mobile/15E148 Safari/604.1","iOS Mobile Phone"
"2022/10/06","10/06/2022 19:49:38","Dan Bongino Show Podcast",143.1,16869,"10/04/2022 18:34:46","Mozilla/5.0 (Windows NT 10.0; Win64; x64) AppleWebKit/537.36 (KHTML, like Gecko) Chrome/100.0.4896.60 Safari/537.36","Windows 10 Desktop"
"2022/10/06","10/06/2022 19:52:45","Dan Bongino Show Podcast",136.17,16702,"10/05/2022 01:27:39","Mozilla/5.0 (iPhone; CPU iPhone OS 15_6_1 like Mac OS X) AppleWebKit/605.1.15 (KHTML, like Gecko) Version/15.6.1 Mobile/15E148 Safari/604.1","iOS Mobile Phone"
"2022/10/06","10/06/2022 20:31:39","Dan Bongino Show Podcast",135,16935,"10/05/2022 02:24:16","Mozilla/5.0 (iPhone; CPU iPhone OS 15_6_1 like Mac OS X) AppleWebKit/605.1.15 (KHTML, like Gecko) Version/15.6.1 Mobile/15E148 Safari/604.1","iOS Mobile Phone"
"2022/10/07","10/07/2022 13:33:32","Dan Bongino Show Podcast",80,16837,"10/07/2022 04:15:01","Mozilla/5.0 (iPhone; CPU iPhone OS 15_5 like Mac OS X) AppleWebKit/605.1.15 (KHTML, like Gecko) Version/15.5 Mobile/15E148 Safari/604.1","iOS Mobile Phone"
"2022/10/07","10/07/2022 14:32:12","Dan Bongino Show Podcast",127.5,16946,"10/07/2022 13:10:43","Mozilla/5.0 (iPhone; CPU iPhone OS 15_6_1 like Mac OS X) AppleWebKit/605.1.15 (KHTML, like Gecko) Version/15.6.1 Mobile/15E148 Safari/604.1","iOS Mobile Phone"
"2022/10/07","10/07/2022 15:39:32","Dan Bongino Show Podcast",144.8,16813,"10/04/2022 19:23:17","Mozilla/5.0 (Linux; Android 12; SM-G996U) AppleWebKit/537.36 (KHTML, like Gecko) Chrome/106.0.0.0 Mobile Safari/537.36","Android Mobile Phone"
"2022/10/07","10/07/2022 17:03:51","Dan Bongino Show Podcast",135,16875,"10/05/2022 10:12:37","Mozilla/5.0 (Linux; Android 12; SM-S908U) AppleWebKit/537.36 (KHTML, like Gecko) Chrome/105.0.0.0 Mobile Safari/537.36","Android Mobile Phone"
"2022/10/10","10/10/2022 18:08:17","Dan Bongino Show Podcast",0,"","10/10/2022 17:50:16","Mozilla/5.0 (iPhone; CPU iPhone OS 15_6_1 like Mac OS X) AppleWebKit/605.1.15 (KHTML, like Gecko) Version/15.6.1 Mobile/15E148 Safari/604.1","iOS Mobile Phone"
"2022/10/10","10/10/2022 19:51:56","Dan Bongino Show Podcast",150,17133,"10/10/2022 18:15:04","Mozilla/5.0 (iPhone; CPU iPhone OS 15_6_1 like Mac OS X) AppleWebKit/605.1.15 (KHTML, like Gecko) Version/15.6.1 Mobile/15E148 Safari/604.1","iOS Mobile Phone"
"2022/10/11","10/11/2022 01:15:02","Dan Bongino Show Podcast",0,"","10/10/2022 22:43:35","Mozilla/5.0 (iPhone; CPU iPhone OS 15_6_1 like Mac OS X) AppleWebKit/605.1.15 (KHTML, like Gecko) Version/15.6.1 Mobile/15E148 Safari/604.1","iOS Mobile Phone"
"2022/10/11","10/11/2022 11:11:57","Dan Bongino Show Podcast",198,17082,"10/10/2022 17:23:27","Mozilla/5.0 (iPhone; CPU iPhone OS 15_6_1 like Mac OS X) AppleWebKit/605.1.15 (KHTML, like Gecko) Version/15.6.1 Mobile/15E148 Safari/604.1","iOS Mobile Phone"
"2022/10/11","10/11/2022 17:20:02","Dan Bongino Show Podcast",150,17122,"10/10/2022 18:10:42","Mozilla/5.0 (iPhone; CPU iPhone OS 15_6_1 like Mac OS X) AppleWebKit/605.1.15 (KHTML, like Gecko) Version/15.6.1 Mobile/15E148 Safari/604.1","iOS Mobile Phone"
"2022/10/11","10/11/2022 17:46:59","Dan Bongino Show Podcast",89,16947,"10/10/2022 19:08:55","Mozilla/5.0 (iPhone; CPU iPhone OS 15_6_1 like Mac OS X) AppleWebKit/605.1.15 (KHTML, like Gecko) Version/15.6.1 Mobile/15E148 Safari/604.1","iOS Mobile Phone"
"2022/10/11","10/11/2022 18:26:17","Dan Bongino Show Podcast",135,16836,"10/10/2022 18:54:48","Mozilla/5.0 (iPhone; CPU iPhone OS 15_6_1 like Mac OS X) AppleWebKit/605.1.15 (KHTML, like Gecko) Version/15.6.1 Mobile/15E148 Safari/604.1","iOS Mobile Phone"
"2022/10/11","10/11/2022 22:38:01","Dan Bongino Show Podcast",75.65,16828,"10/11/2022 02:13:22","Mozilla/5.0 (iPhone; CPU iPhone OS 15_6_1 like Mac OS X) AppleWebKit/605.1.15 (KHTML, like Gecko) Version/15.6.1 Mobile/15E148 Safari/604.1","iOS Mobile Phone"
"2022/10/12","10/12/2022 04:16:18","Dan Bongino Show Podcast",110,17215,"10/11/2022 18:29:39","Mozilla/5.0 (iPhone; CPU iPhone OS 15_6_1 like Mac OS X) AppleWebKit/605.1.15 (KHTML, like Gecko) Version/15.6.1 Mobile/15E148 Safari/604.1","iOS Mobile Phone"
"2022/10/12","10/12/2022 18:38:58","Dan Bongino Show Podcast",135,17187,"10/10/2022 21:29:52","Mozilla/5.0 (iPhone; CPU iPhone OS 15_6_1 like Mac OS X) AppleWebKit/605.1.15 (KHTML, like Gecko) Version/15.6.1 Mobile/15E148 Safari/604.1","iOS Mobile Phone"
"2022/10/14","10/14/2022 16:47:50","Dan Bongino Show Podcast",135,17274,"10/11/2022 16:51:24","Mozilla/5.0 (iPhone; CPU iPhone OS 15_6_1 like Mac OS X) AppleWebKit/605.1.15 (KHTML, like Gecko) Version/15.6.1 Mobile/15E148 Safari/604.1","iOS Mobile Phone"
"2022/10/14","10/14/2022 17:49:33","Dan Bongino Show Podcast",71.2,17348,"10/13/2022 17:10:25","Mozilla/5.0 (iPhone; CPU iPhone OS 15_6 like Mac OS X) AppleWebKit/605.1.15 (KHTML, like Gecko) GSA/233.0.478398274 Mobile/15E148 Safari/604.1","iOS Mobile Phone"
"2022/10/15","10/15/2022 18:07:14","Dan Bongino Show Podcast",99,17096,"10/10/2022 20:52:31","Mozilla/5.0 (iPhone; CPU iPhone OS 15_6_1 like Mac OS X) AppleWebKit/605.1.15 (KHTML, like Gecko) Version/15.6.1 Mobile/15E148 Safari/604.1","iOS Mobile Phone"
"2022/10/17","10/17/2022 19:55:13","Dan Bongino Show Podcast",169.15,17422,"10/17/2022 19:13:10","Mozilla/5.0 (iPhone; CPU iPhone OS 15_6_1 like Mac OS X) AppleWebKit/605.1.15 (KHTML, like Gecko) Version/15.6.1 Mobile/15E148 Safari/604.1","iOS Mobile Phone"
"2022/10/18","10/18/2022 12:31:23","Dan Bongino Show Podcast",300,17525,"10/17/2022 20:45:48","Mozilla/5.0 (iPhone; CPU iPhone OS 15_5 like Mac OS X) AppleWebKit/605.1.15 (KHTML, like Gecko) Version/15.5 Mobile/15E148 Safari/604.1","iOS Mobile Phone"
"2022/10/18","10/18/2022 12:37:54","Dan Bongino Show Podcast",110,17526,"10/11/2022 23:23:38","Mozilla/5.0 (iPhone; CPU iPhone OS 15_6_1 like Mac OS X) AppleWebKit/605.1.15 (KHTML, like Gecko) Version/15.6.1 Mobile/15E148 Safari/604.1","iOS Mobile Phone"
"2022/10/18","10/18/2022 14:29:11","Dan Bongino Show Podcast",309,17501,"10/11/2022 14:03:06","Mozilla/5.0 (Linux; Android 12; SM-S906U) AppleWebKit/537.36 (KHTML, like Gecko) Chrome/106.0.0.0 Mobile Safari/537.36","Android Mobile Phone"
"2022/10/18","10/18/2022 17:34:07","Dan Bongino Show Podcast",95.23,17421,"10/18/2022 12:41:05","Mozilla/5.0 (Linux; Android 12; SM-A037U) AppleWebKit/537.36 (KHTML, like Gecko) Chrome/106.0.0.0 Mobile Safari/537.36","Android Mobile Phone"
"2022/10/18","10/18/2022 18:09:15","Dan Bongino Show Podcast",135,17558,"10/17/2022 19:29:52","Mozilla/5.0 (iPhone; CPU iPhone OS 15_6 like Mac OS X) AppleWebKit/605.1.15 (KHTML, like Gecko) GSA/233.0.478398274 Mobile/15E148 Safari/604.1","iOS Mobile Phone"
"2022/10/18","10/18/2022 18:40:52","Dan Bongino Show Podcast",0,"","10/18/2022 13:18:44","Mozilla/5.0 (iPhone; CPU iPhone OS 16_0_2 like Mac OS X) AppleWebKit/605.1.15 (KHTML, like Gecko) Version/16.0 Mobile/15E148 Safari/604.1","iOS Mobile Phone"
"2022/10/18","10/18/2022 19:32:48","Dan Bongino Show Podcast",161.25,17533,"10/13/2022 20:06:07","Mozilla/5.0 (iPhone; CPU iPhone OS 15_6 like Mac OS X) AppleWebKit/605.1.15 (KHTML, like Gecko) CriOS/106.0.5249.92 Mobile/15E148 Safari/604.1","iOS Mobile Phone"
"2022/10/18","10/18/2022 21:37:14","Dan Bongino Show Podcast",519,17571,"10/18/2022 14:19:45","Mozilla/5.0 (Macintosh; Intel Mac OS X 10_15_6) AppleWebKit/605.1.15 (KHTML, like Gecko) Version/15.6.1 Safari/605.1.15","macOS Desktop"
"2022/10/19","10/19/2022 02:16:57","Dan Bongino Show Podcast",161.25,17533,"10/12/2022 21:11:23","Mozilla/5.0 (iPhone; CPU iPhone OS 15_6 like Mac OS X) AppleWebKit/605.1.15 (KHTML, like Gecko) CriOS/106.0.5249.92 Mobile/15E148 Safari/604.1","iOS Mobile Phone"
"2022/10/19","10/19/2022 12:23:09","Dan Bongino Show Podcast",144.45,17602,"10/18/2022 06:01:45","Mozilla/5.0 (iPhone; CPU iPhone OS 16_0_3 like Mac OS X) AppleWebKit/605.1.15 (KHTML, like Gecko) Version/16.0 Mobile/15E148 Safari/604.1","iOS Mobile Phone"
"2022/10/19","10/19/2022 18:50:28","Dan Bongino Show Podcast",135,17558,"10/18/2022 15:53:05","Mozilla/5.0 (iPhone; CPU iPhone OS 15_6_1 like Mac OS X) AppleWebKit/605.1.15 (KHTML, like Gecko) Version/15.6.1 Mobile/15E148 Safari/604.1","iOS Mobile Phone"
"2022/10/19","10/19/2022 21:14:27","Dan Bongino Show Podcast",165,17621,"10/10/2022 22:09:27","Mozilla/5.0 (iPhone; CPU iPhone OS 16_0_3 like Mac OS X) AppleWebKit/605.1.15 (KHTML, like Gecko) Version/16.0 Mobile/15E148 Safari/604.1","iOS Mobile Phone"
"2022/10/20","10/20/2022 00:18:40","Dan Bongino Show Podcast",0,"","10/18/2022 15:16:53","Mozilla/5.0 (iPhone; CPU iPhone OS 15_6_1 like Mac OS X) AppleWebKit/605.1.15 (KHTML, like Gecko) Version/15.6.1 Mobile/15E148 Safari/604.1","iOS Mobile Phone"
"2022/10/20","10/20/2022 03:09:58","Dan Bongino Show Podcast",110,"","10/17/2022 20:10:37","Mozilla/5.0 (iPhone; CPU iPhone OS 15_6_1 like Mac OS X) AppleWebKit/605.1.15 (KHTML, like Gecko) Version/15.6.1 Mobile/15E148 Safari/604.1","iOS Mobile Phone"
"2022/10/20","10/20/2022 04:21:57","Dan Bongino Show Podcast",127.5,17635,"10/18/2022 04:21:52","Mozilla/5.0 (iPhone; CPU iPhone OS 16_0_2 like Mac OS X) AppleWebKit/605.1.15 (KHTML, like Gecko) Version/16.0 Mobile/15E148 Safari/604.1","iOS Mobile Phone"
"2022/10/22","10/22/2022 01:33:37","Dan Bongino Show Podcast",120,17725,"10/10/2022 17:16:34","Mozilla/5.0 (iPhone; CPU iPhone OS 15_6 like Mac OS X) AppleWebKit/605.1.15 (KHTML, like Gecko) CriOS/106.0.5249.92 Mobile/15E148 Safari/604.1","iOS Mobile Phone"
"2022/10/22","10/22/2022 14:14:53","Dan Bongino Show Podcast",150,17453,"10/17/2022 19:17:28","Mozilla/5.0 (iPhone; CPU iPhone OS 15_6 like Mac OS X) AppleWebKit/605.1.15 (KHTML, like Gecko) CriOS/106.0.5249.92 Mobile/15E148 Safari/604.1","iOS Mobile Phone"
"2022/10/22","10/22/2022 15:44:59","Dan Bongino Show Podcast",139.23,17756,"10/17/2022 23:21:30","Mozilla/5.0 (iPhone; CPU iPhone OS 16_0 like Mac OS X) AppleWebKit/605.1.15 (KHTML, like Gecko) Version/16.0 Mobile/15E148 Safari/604.1","iOS Mobile Phone"
"2022/10/22","10/22/2022 22:42:49","Dan Bongino Show Podcast",150,17773,"10/19/2022 15:14:16","Mozilla/5.0 (iPhone; CPU iPhone OS 15_6_1 like Mac OS X) AppleWebKit/605.1.15 (KHTML, like Gecko) Version/15.6.1 Mobile/15E148 Safari/604.1","iOS Mobile Phone"
"2022/10/23","10/23/2022 16:42:06","Dan Bongino Show Podcast",127.5,17662,"10/19/2022 19:46:39","Mozilla/5.0 (iPhone; CPU iPhone OS 15_6_1 like Mac OS X) AppleWebKit/605.1.15 (KHTML, like Gecko) Version/15.6.1 Mobile/15E148 Safari/604.1","iOS Mobile Phone"
"2022/10/24","10/24/2022 03:20:40","Dan Bongino Show Podcast",135,17819,"10/21/2022 13:33:41","Mozilla/5.0 (iPhone; CPU iPhone OS 15_6_1 like Mac OS X) AppleWebKit/605.1.15 (KHTML, like Gecko) Version/15.6.1 Mobile/15E148 Safari/604.1","iOS Mobile Phone"
"2022/10/24","10/24/2022 15:17:07","Dan Bongino Show Podcast",120,17679,"10/18/2022 14:14:31","Mozilla/5.0 (Linux; Android 12; SM-A326U) AppleWebKit/537.36 (KHTML, like Gecko) Chrome/106.0.0.0 Mobile Safari/537.36","Android Mobile Phone"
"2022/10/28","10/28/2022 16:56:55","Dan Bongino Show Podcast",0,"","10/21/2022 10:38:45","Mozilla/5.0 (iPhone; CPU iPhone OS 15_6_1 like Mac OS X) AppleWebKit/605.1.15 (KHTML, like Gecko) Version/15.6.1 Mobile/15E148 Safari/604.1","iOS Mobile Phone"
"2022/10/28","10/28/2022 21:05:40","Dan Bongino Show Podcast",171.7,18039,"10/25/2022 12:32:15","Mozilla/5.0 (iPhone; CPU iPhone OS 16_0_2 like Mac OS X) AppleWebKit/605.1.15 (KHTML, like Gecko) Version/16.0 Mobile/15E148 Safari/604.1","iOS Mobile Phone"
"2022/10/29","10/29/2022 00:52:32","Dan Bongino Show Podcast",170.4,18048,"10/28/2022 19:52:08","Mozilla/5.0 (iPhone; CPU iPhone OS 15_6_1 like Mac OS X) AppleWebKit/605.1.15 (KHTML, like Gecko) Version/15.6.1 Mobile/15E148 Safari/604.1","iOS Mobile Phone"
"2022/10/29","10/29/2022 13:12:07","Dan Bongino Show Podcast",71.2,17878,"10/29/2022 06:58:33","Mozilla/5.0 (iPad; CPU OS 15_6_1 like Mac OS X) AppleWebKit/605.1.15 (KHTML, like Gecko) Version/15.6.1 Mobile/15E148 Safari/604.1","iPadOS Tablet"
"2022/10/29","10/29/2022 14:14:52","Dan Bongino Show Podcast",83.28,17912,"10/24/2022 22:50:53","Mozilla/5.0 (iPhone; CPU iPhone OS 15_6_1 like Mac OS X) AppleWebKit/605.1.15 (KHTML, like Gecko) Version/15.6.1 Mobile/15E148 Safari/604.1","iOS Mobile Phone"
"2022/10/29","10/29/2022 21:43:33","Dan Bongino Show Podcast",159.8,16764,"10/29/2022 13:31:38","Mozilla/5.0 (iPhone; CPU iPhone OS 16_0_2 like Mac OS X) AppleWebKit/605.1.15 (KHTML, like Gecko) Version/16.0 Mobile/15E148 Safari/604.1","iOS Mobile Phone"
"2022/10/30","10/30/2022 00:50:13","Dan Bongino Show Podcast",93.5,17881,"10/28/2022 22:22:03","Mozilla/5.0 (Linux; Android 12; SM-G991U Build/SP1A.210812.016; wv) AppleWebKit/537.36 (KHTML, like Gecko) Version/4.0 Chrome/106.0.5249.126 Mobile Safari/537.36 EdgW/1.0","Android Mobile Phone"
"2022/10/31","10/31/2022 04:34:46","Dan Bongino Show Podcast",0,"","10/28/2022 22:18:25","Mozilla/5.0 (iPhone; CPU iPhone OS 15_6_1 like Mac OS X) AppleWebKit/605.1.15 (KHTML, like Gecko) Version/15.6.1 Mobile/15E148 Safari/604.1","iOS Mobile Phone"
"2022/11/01","11/01/2022 04:36:14","Dan Bongino Show Podcast",135,17996,"10/28/2022 18:22:22","Mozilla/5.0 (Linux; Android 12; SM-G998U) AppleWebKit/537.36 (KHTML, like Gecko) Chrome/106.0.0.0 Mobile Safari/537.36","Android Mobile Phone"
"2022/11/01","11/01/2022 10:39:38","Dan Bongino Show Podcast",135,18219,"10/29/2022 09:13:30","Mozilla/5.0 (iPhone; CPU iPhone OS 15_6_1 like Mac OS X) AppleWebKit/605.1.15 (KHTML, like Gecko) Version/15.6.1 Mobile/15E148 Safari/604.1","iOS Mobile Phone"
"2022/11/01","11/01/2022 14:14:28","Dan Bongino Show Podcast",0,"","10/31/2022 19:57:50","Mozilla/5.0 (iPhone; CPU iPhone OS 15_5 like Mac OS X) AppleWebKit/605.1.15 (KHTML, like Gecko) Version/15.5 Mobile/15E148 Safari/604.1","iOS Mobile Phone"
"2022/11/01","11/01/2022 15:45:21","Dan Bongino Show Podcast",196.2,18248,"11/01/2022 02:30:40","Mozilla/5.0 (iPhone; CPU iPhone OS 16_0 like Mac OS X) AppleWebKit/605.1.15 (KHTML, like Gecko) CriOS/107.0.5304.66 Mobile/15E148 Safari/604.1","iOS Mobile Phone"
"2022/11/01","11/01/2022 16:38:42","Dan Bongino Show Podcast",135,18081,"11/01/2022 10:38:31","Mozilla/5.0 (iPhone; CPU iPhone OS 15_6_1 like Mac OS X) AppleWebKit/605.1.15 (KHTML, like Gecko) Version/15.6.1 Mobile/15E148 Safari/604.1","iOS Mobile Phone"
"2022/11/02","11/02/2022 13:50:55","Dan Bongino Show Podcast",135,18169,"10/31/2022 12:18:55","Mozilla/5.0 (iPhone; CPU iPhone OS 15_6_1 like Mac OS X) AppleWebKit/605.1.15 (KHTML, like Gecko) Version/15.6.1 Mobile/15E148 Safari/604.1","iOS Mobile Phone"
"2022/11/03","11/03/2022 21:10:51","Dan Bongino Show Podcast",210,18393,"11/03/2022 19:56:15","Mozilla/5.0 (iPhone; CPU iPhone OS 15_6_1 like Mac OS X) AppleWebKit/605.1.15 (KHTML, like Gecko) Version/15.6.1 Mobile/15E148 Safari/604.1","iOS Mobile Phone"
"2022/11/04","11/04/2022 00:32:20","Dan Bongino Show Podcast",0,"","11/04/2022 00:25:24","Mozilla/5.0 (iPhone; CPU iPhone OS 15_6_1 like Mac OS X) AppleWebKit/605.1.15 (KHTML, like Gecko) Mobile/15E148","iOS Mobile Phone"
"2022/11/04","11/04/2022 11:57:54","Dan Bongino Show Podcast",135,18359,"11/03/2022 22:46:42","Mozilla/5.0 (iPhone; CPU iPhone OS 15_6_1 like Mac OS X) AppleWebKit/605.1.15 (KHTML, like Gecko) Version/15.6.1 Mobile/15E148 Safari/604.1","iOS Mobile Phone"
"2022/11/04","11/04/2022 17:41:11","Dan Bongino Show Podcast",110,18450,"11/03/2022 18:51:50","Mozilla/5.0 (Macintosh; Intel Mac OS X 10_15_7) AppleWebKit/605.1.15 (KHTML, like Gecko) Version/15.6.1 Safari/605.1.15","macOS Desktop"
"2022/11/05","11/05/2022 11:49:42","Dan Bongino Show Podcast",135,18496,"11/03/2022 17:27:38","Mozilla/5.0 (iPhone; CPU iPhone OS 15_6_1 like Mac OS X) AppleWebKit/605.1.15 (KHTML, like Gecko) Version/15.6.1 Mobile/15E148 Safari/604.1","iOS Mobile Phone"
"2022/11/06","11/06/2022 15:03:53","Dan Bongino Show Podcast",239,18542,"11/04/2022 16:30:38","Mozilla/5.0 (iPhone; CPU iPhone OS 15_6_1 like Mac OS X) AppleWebKit/605.1.15 (KHTML, like Gecko) Version/15.6.1 Mobile/15E148 Safari/604.1","iOS Mobile Phone"
"2022/11/06","11/06/2022 20:18:10","Dan Bongino Show Podcast",135,18094,"11/03/2022 18:14:47","Mozilla/5.0 (iPhone; CPU iPhone OS 15_6_1 like Mac OS X) AppleWebKit/605.1.15 (KHTML, like Gecko) Version/15.6.1 Mobile/15E148 Safari/604.1","iOS Mobile Phone"
"2022/11/07","11/07/2022 23:43:20","Dan Bongino Show Podcast",0,18617,"11/04/2022 15:05:40","Mozilla/5.0 (iPhone; CPU iPhone OS 15_6_1 like Mac OS X) AppleWebKit/605.1.15 (KHTML, like Gecko) Version/15.6.1 Mobile/15E148 Safari/604.1","iOS Mobile Phone"
"2022/11/09","11/09/2022 16:28:14","Dan Bongino Show Podcast",150,18713,"11/06/2022 16:08:49","Mozilla/5.0 (iPhone; CPU iPhone OS 15_6_1 like Mac OS X) AppleWebKit/605.1.15 (KHTML, like Gecko) Version/15.6.1 Mobile/15E148 Safari/604.1","iOS Mobile Phone"
"2022/11/09","11/09/2022 17:50:18","Dan Bongino Show Podcast",357.17,18720,"11/09/2022 16:37:08","Mozilla/5.0 (iPhone; CPU iPhone OS 15_6 like Mac OS X) AppleWebKit/605.1.15 (KHTML, like Gecko) GSA/235.0.482074324 Mobile/15E148 Safari/604.1","iOS Mobile Phone"
"2022/11/09","11/09/2022 18:23:24","Dan Bongino Show Podcast",294.8,16096,"11/08/2022 00:45:06","Mozilla/5.0 (iPhone; CPU iPhone OS 15_6_1 like Mac OS X) AppleWebKit/605.1.15 (KHTML, like Gecko) Version/15.6.1 Mobile/15E148 Safari/604.1","iOS Mobile Phone"
"2022/11/09","11/09/2022 19:51:55","Dan Bongino Show Podcast",250.8,18728,"11/09/2022 18:12:15","Mozilla/5.0 (Windows NT 10.0; Win64; x64) AppleWebKit/537.36 (KHTML, like Gecko) Chrome/107.0.0.0 Safari/537.36","Windows 10 Desktop"
"2022/11/10","11/10/2022 02:38:00","Dan Bongino Show Podcast",120,18750,"11/10/2022 02:12:17","Mozilla/5.0 (iPhone; CPU iPhone OS 15_1 like Mac OS X) AppleWebKit/605.1.15 (KHTML, like Gecko) Version/15.1 Mobile/15E148 Safari/604.1","iOS Mobile Phone"
"2022/11/10","11/10/2022 16:56:46","Dan Bongino Show Podcast",260,18600,"11/09/2022 20:10:45","Mozilla/5.0 (iPhone; CPU iPhone OS 15_6_1 like Mac OS X) AppleWebKit/605.1.15 (KHTML, like Gecko) Version/15.6.1 Mobile/15E148 Safari/604.1","iOS Mobile Phone"
"2022/11/10","11/10/2022 21:25:07","Dan Bongino Show Podcast",75.65,18830,"11/10/2022 20:54:04","Mozilla/5.0 (Linux; Android 12; SAMSUNG SM-N981U) AppleWebKit/537.36 (KHTML, like Gecko) SamsungBrowser/19.0 Chrome/102.0.5005.125 Mobile Safari/537.36","Android Mobile Phone"
"2022/11/11","11/11/2022 06:49:47","Dan Bongino Show Podcast",75.65,18855,"11/11/2022 02:37:30","Mozilla/5.0 (iPhone; CPU iPhone OS 15_6_1 like Mac OS X) AppleWebKit/605.1.15 (KHTML, like Gecko) Version/15.6.1 Mobile/15E148 Safari/604.1","iOS Mobile Phone"
"2022/11/11","11/11/2022 12:38:13","Dan Bongino Show Podcast",110,18878,"11/10/2022 19:55:08","Mozilla/5.0 (iPhone; CPU iPhone OS 15_6_1 like Mac OS X) AppleWebKit/605.1.15 (KHTML, like Gecko) Version/15.6.1 Mobile/15E148 Safari/604.1","iOS Mobile Phone"
"2022/11/11","11/11/2022 13:16:22","Dan Bongino Show Podcast",200.8,18879,"11/11/2022 12:46:42","Mozilla/5.0 (Macintosh; Intel Mac OS X 10_15_7) AppleWebKit/605.1.15 (KHTML, like Gecko) Version/14.1.2 Safari/605.1.15","macOS Desktop"
"2022/11/11","11/11/2022 17:43:48","Dan Bongino Show Podcast",0,"","11/11/2022 01:08:22","Mozilla/5.0 (iPhone; CPU iPhone OS 15_6_1 like Mac OS X) AppleWebKit/605.1.15 (KHTML, like Gecko) Version/15.6.1 Mobile/15E148 Safari/604.1","iOS Mobile Phone"
"2022/11/12","11/12/2022 14:52:08","Dan Bongino Show Podcast",135,18658,"11/10/2022 21:20:40","Mozilla/5.0 (Linux; Android 12; SM-N986U) AppleWebKit/537.36 (KHTML, like Gecko) Chrome/106.0.0.0 Mobile Safari/537.36","Android Mobile Phone"
"2022/11/12","11/12/2022 14:55:05","Dan Bongino Show Podcast",0,"","11/09/2022 18:15:10","Mozilla/5.0 (iPhone; CPU iPhone OS 15_6_1 like Mac OS X) AppleWebKit/605.1.15 (KHTML, like Gecko) Version/15.6.1 Mobile/15E148 Safari/604.1","iOS Mobile Phone"
"2022/11/13","11/13/2022 16:13:01","Dan Bongino Show Podcast",0,"","11/10/2022 13:32:04","Mozilla/5.0 (iPhone; CPU iPhone OS 16_0_2 like Mac OS X) AppleWebKit/605.1.15 (KHTML, like Gecko) Version/16.0 Mobile/15E148 Safari/604.1","iOS Mobile Phone"
"2022/11/14","11/14/2022 02:44:40","Dan Bongino Show Podcast",322,18758,"11/09/2022 19:16:54","Mozilla/5.0 (Linux; Android 10; SM-A115U) AppleWebKit/537.36 (KHTML, like Gecko) Chrome/80.0.3987.99 Mobile Safari/537.36","Android Mobile Phone"
"2022/11/14","11/14/2022 15:32:16","Dan Bongino Show Podcast",135,19078,"11/04/2022 02:56:36","Mozilla/5.0 (iPhone; CPU iPhone OS 16_0_3 like Mac OS X) AppleWebKit/605.1.15 (KHTML, like Gecko) Version/16.0 Mobile/15E148 Safari/604.1","iOS Mobile Phone"
"2022/11/14","11/14/2022 22:00:47","Dan Bongino Show Podcast",81.32,19112,"11/13/2022 20:05:45","Mozilla/5.0 (iPhone; CPU iPhone OS 15_6_1 like Mac OS X) AppleWebKit/605.1.15 (KHTML, like Gecko) FxiOS/106.1  Mobile/15E148 Safari/605.1.15","iOS Mobile Phone"
"2022/11/14","11/14/2022 23:32:13","Dan Bongino Show Podcast",88,19124,"11/14/2022 22:57:41","Mozilla/5.0 (Windows NT 10.0; Win64; x64) AppleWebKit/537.36 (KHTML, like Gecko) Chrome/107.0.0.0 Safari/537.36","Windows 10 Desktop"
"2022/11/15","11/15/2022 01:11:35","Dan Bongino Show Podcast",120,19130,"11/14/2022 18:57:39","Mozilla/5.0 (iPad; CPU OS 15_6 like Mac OS X) AppleWebKit/605.1.15 (KHTML, like Gecko) CriOS/107.0.5304.101 Mobile/15E148 Safari/604.1","iPadOS Tablet"
"2022/11/15","11/15/2022 01:12:07","Dan Bongino Show Podcast",89,18991,"11/14/2022 21:43:38","Mozilla/5.0 (iPhone; CPU iPhone OS 15_6_1 like Mac OS X) AppleWebKit/605.1.15 (KHTML, like Gecko) Version/15.6.1 Mobile/15E148 Safari/604.1","iOS Mobile Phone"
"2022/11/15","11/15/2022 21:05:54","Dan Bongino Show Podcast",135,19189,"11/15/2022 01:12:35","Mozilla/5.0 (Linux; Android 13; Pixel 6) AppleWebKit/537.36 (KHTML, like Gecko) Chrome/101.0.0.0 Mobile Safari/537.36","Android Mobile Phone"
"2022/11/15","11/15/2022 23:38:25","Dan Bongino Show Podcast",144.45,19197,"11/15/2022 00:05:29","Mozilla/5.0 (Windows NT 10.0; Win64; x64) AppleWebKit/537.36 (KHTML, like Gecko) Chrome/107.0.0.0 Safari/537.36","Windows 10 Desktop"
"2022/11/16","11/16/2022 02:07:05","Dan Bongino Show Podcast",213,19029,"11/10/2022 18:45:41","Mozilla/5.0 (iPhone; CPU iPhone OS 15_6 like Mac OS X) AppleWebKit/605.1.15 (KHTML, like Gecko) CriOS/107.0.5304.101 Mobile/15E148 Safari/604.1","iOS Mobile Phone"
"2022/11/16","11/16/2022 05:19:06","Dan Bongino Show Podcast",127.95,19211,"11/16/2022 05:08:45","Mozilla/5.0 (Windows NT 10.0; Win64; x64) AppleWebKit/537.36 (KHTML, like Gecko) Chrome/107.0.0.0 Safari/537.36 Edg/107.0.1418.42","Windows 10 Desktop"
"2022/11/16","11/16/2022 13:45:20","Dan Bongino Show Podcast",165,18797,"11/10/2022 22:42:02","Mozilla/5.0 (iPhone; CPU iPhone OS 15_6_1 like Mac OS X) AppleWebKit/605.1.15 (KHTML, like Gecko) Version/15.6.1 Mobile/15E148 Safari/604.1","iOS Mobile Phone"
"2022/11/16","11/16/2022 13:59:56","Dan Bongino Show Podcast",0,"","11/10/2022 02:02:32","Mozilla/5.0 (iPhone; CPU iPhone OS 16_0 like Mac OS X) AppleWebKit/605.1.15 (KHTML, like Gecko) Version/16.0 Mobile/15E148 Safari/604.1","iOS Mobile Phone"
"2022/11/16","11/16/2022 18:59:40","Dan Bongino Show Podcast",504.2,19258,"11/16/2022 14:36:26","Mozilla/5.0 (Macintosh; Intel Mac OS X 10_15_7) AppleWebKit/605.1.15 (KHTML, like Gecko) Version/16.0 Safari/605.1.15","macOS Desktop"
"2022/11/16","11/16/2022 23:16:02","Dan Bongino Show Podcast",127.2,19272,"11/16/2022 11:59:39","Mozilla/5.0 (Linux; Android 12; SM-N986U) AppleWebKit/537.36 (KHTML, like Gecko) Chrome/107.0.0.0 Mobile Safari/537.36","Android Mobile Phone"
"2022/11/17","11/17/2022 01:51:25","Dan Bongino Show Podcast",150,19099,"11/09/2022 22:41:14","Mozilla/5.0 (iPhone; CPU iPhone OS 15_6_1 like Mac OS X) AppleWebKit/605.1.15 (KHTML, like Gecko) Version/15.6.1 Mobile/15E148 Safari/604.1","iOS Mobile Phone"
"2022/11/17","11/17/2022 14:47:13","Dan Bongino Show Podcast",150,"","11/15/2022 18:18:50","Mozilla/5.0 (iPhone; CPU iPhone OS 15_6_1 like Mac OS X) AppleWebKit/605.1.15 (KHTML, like Gecko) Version/15.6.1 Mobile/15E148 Safari/604.1","iOS Mobile Phone"
"2022/11/17","11/17/2022 15:06:46","Dan Bongino Show Podcast",127.89,19014,"11/16/2022 02:18:08","Mozilla/5.0 (iPhone; CPU iPhone OS 15_6_1 like Mac OS X) AppleWebKit/605.1.15 (KHTML, like Gecko) Version/15.6.1 Mobile/15E148 Safari/604.1","iOS Mobile Phone"
"2022/11/17","11/17/2022 19:30:57","Dan Bongino Show Podcast",0,"","11/10/2022 20:06:38","Mozilla/5.0 (iPhone; CPU iPhone OS 15_6_1 like Mac OS X) AppleWebKit/605.1.15 (KHTML, like Gecko) Version/15.6.1 Mobile/15E148 Safari/604.1","iOS Mobile Phone"
"2022/11/18","11/18/2022 04:55:53","Dan Bongino Show Podcast",89,"","11/17/2022 02:58:54","Mozilla/5.0 (iPhone; CPU iPhone OS 15_6_1 like Mac OS X) AppleWebKit/605.1.15 (KHTML, like Gecko) Version/15.6.1 Mobile/15E148 Safari/604.1","iOS Mobile Phone"
"2022/11/18","11/18/2022 05:34:27","Dan Bongino Show Podcast",150,19355,"11/16/2022 15:24:41","Mozilla/5.0 (iPhone; CPU iPhone OS 15_6_1 like Mac OS X) AppleWebKit/605.1.15 (KHTML, like Gecko) Version/15.6.1 Mobile/15E148 Safari/604.1","iOS Mobile Phone"
"2022/11/18","11/18/2022 21:57:13","Dan Bongino Show Podcast",135,19379,"11/15/2022 23:01:31","Mozilla/5.0 (iPhone; CPU iPhone OS 16_0_3 like Mac OS X) AppleWebKit/605.1.15 (KHTML, like Gecko) Version/16.0 Mobile/15E148 Safari/604.1","iOS Mobile Phone"
"2022/11/19","11/19/2022 15:04:40","Dan Bongino Show Podcast",150,19084,"11/17/2022 21:21:36","Mozilla/5.0 (iPhone; CPU iPhone OS 15_6_1 like Mac OS X) AppleWebKit/605.1.15 (KHTML, like Gecko) Version/15.6.1 Mobile/15E148 Safari/604.1","iOS Mobile Phone"
"2022/11/20","11/20/2022 02:44:11","Dan Bongino Show Podcast",165,19350,"11/17/2022 03:20:02","Mozilla/5.0 (iPhone; CPU iPhone OS 15_6_1 like Mac OS X) AppleWebKit/605.1.15 (KHTML, like Gecko) Version/15.6.1 Mobile/15E148 Safari/604.1","iOS Mobile Phone"
"2022/11/20","11/20/2022 15:44:07","Dan Bongino Show Podcast",62.3,19516,"11/10/2022 00:28:00","Mozilla/5.0 (Linux; Android 13; SM-S908U) AppleWebKit/537.36 (KHTML, like Gecko) Chrome/107.0.0.0 Mobile Safari/537.36","Android Mobile Phone"
"2022/11/21","11/21/2022 04:51:04","Dan Bongino Show Podcast",179.1,19269,"11/15/2022 19:02:19","Mozilla/5.0 (iPhone; CPU iPhone OS 15_6_1 like Mac OS X) AppleWebKit/605.1.15 (KHTML, like Gecko) Version/15.6.1 Mobile/15E148 Safari/604.1","iOS Mobile Phone"
"2022/11/21","11/21/2022 12:39:26","Dan Bongino Show Podcast",0,"","11/15/2022 02:19:14","Mozilla/5.0 (iPhone; CPU iPhone OS 15_6_1 like Mac OS X) AppleWebKit/605.1.15 (KHTML, like Gecko) Version/15.6.1 Mobile/15E148 Safari/604.1","iOS Mobile Phone"
"2022/11/21","11/21/2022 14:36:32","Dan Bongino Show Podcast",62.3,19574,"11/10/2022 18:39:12","Mozilla/5.0 (iPhone; CPU iPhone OS 15_6_1 like Mac OS X) AppleWebKit/605.1.15 (KHTML, like Gecko) Version/15.6.1 Mobile/15E148 Safari/604.1","iOS Mobile Phone"
"2022/11/21","11/21/2022 17:22:56","Dan Bongino Show Podcast",75.65,19584,"11/20/2022 16:34:59","Mozilla/5.0 (Linux; Android 11; Nokia X100) AppleWebKit/537.36 (KHTML, like Gecko) Chrome/107.0.0.0 Mobile Safari/537.36","Android Mobile Phone"
"2022/11/21","11/21/2022 20:55:52","Dan Bongino Show Podcast",153.85,19583,"11/21/2022 12:17:39","Mozilla/5.0 (iPhone; CPU iPhone OS 15_6_1 like Mac OS X) AppleWebKit/605.1.15 (KHTML, like Gecko) Version/15.6.1 Mobile/15E148 Safari/604.1","iOS Mobile Phone"
"2022/11/22","11/22/2022 00:28:02","Dan Bongino Show Podcast",74.5,19613,"11/21/2022 18:36:59","Mozilla/5.0 (iPhone; CPU iPhone OS 15_6 like Mac OS X) AppleWebKit/605.1.15 (KHTML, like Gecko) Version/15.6 Mobile/15E148 Safari/604.1","iOS Mobile Phone"
"2022/11/22","11/22/2022 02:52:36","Dan Bongino Show Podcast",82.8,19619,"11/19/2022 01:24:36","Mozilla/5.0 (iPhone; CPU iPhone OS 15_5 like Mac OS X) AppleWebKit/605.1.15 (KHTML, like Gecko) Version/15.5 Mobile/15E148 Safari/604.1","iOS Mobile Phone"
"2022/11/22","11/22/2022 17:22:19","Dan Bongino Show Podcast",135,19677,"11/10/2022 23:09:08","Mozilla/5.0 (Linux; Android 12; SM-N986U) AppleWebKit/537.36 (KHTML, like Gecko) Chrome/107.0.0.0 Mobile Safari/537.36","Android Mobile Phone"
"2022/11/23","11/23/2022 14:41:32","Dan Bongino Show Podcast",71.23,19719,"11/18/2022 17:52:34","Mozilla/5.0 (iPhone; CPU iPhone OS 15_6_1 like Mac OS X) AppleWebKit/605.1.15 (KHTML, like Gecko) Version/15.6.1 Mobile/15E148 Safari/604.1","iOS Mobile Phone"
"2022/11/24","11/24/2022 00:14:51","Dan Bongino Show Podcast",120,19780,"11/23/2022 22:45:03","Mozilla/5.0 (iPhone; CPU iPhone OS 15_1 like Mac OS X) AppleWebKit/605.1.15 (KHTML, like Gecko) Version/15.1 Mobile/15E148 Safari/604.1","iOS Mobile Phone"
"2022/11/24","11/24/2022 01:47:33","Dan Bongino Show Podcast",150,19469,"11/13/2022 12:33:57","Mozilla/5.0 (iPhone; CPU iPhone OS 15_3_1 like Mac OS X) AppleWebKit/605.1.15 (KHTML, like Gecko) Version/15.3 Mobile/15E148 Safari/604.1","iOS Mobile Phone"
"2022/11/25","11/25/2022 19:24:38","Dan Bongino Show Podcast",150,19534,"11/22/2022 15:31:42","Mozilla/5.0 (Linux; Android 13; Pixel 6) AppleWebKit/537.36 (KHTML, like Gecko) Chrome/107.0.0.0 Mobile Safari/537.36","Android Mobile Phone"
"2022/11/25","11/25/2022 20:38:32","Dan Bongino Show Podcast",135,19974,"11/24/2022 22:54:01","Mozilla/5.0 (iPhone; CPU iPhone OS 16_0_2 like Mac OS X) AppleWebKit/605.1.15 (KHTML, like Gecko) Version/16.0 Mobile/15E148 Safari/604.1","iOS Mobile Phone"
"2022/11/25","11/25/2022 21:39:02","Dan Bongino Show Podcast",264.8,19468,"11/24/2022 17:34:35","Mozilla/5.0 (Linux; Android 12; SM-G998U) AppleWebKit/537.36 (KHTML, like Gecko) Chrome/107.0.0.0 Mobile Safari/537.36","Android Mobile Phone"
"2022/11/25","11/25/2022 22:21:31","Dan Bongino Show Podcast",161.25,19847,"11/25/2022 20:55:12","Mozilla/5.0 (iPhone; CPU iPhone OS 16_0_2 like Mac OS X) AppleWebKit/605.1.15 (KHTML, like Gecko) Version/16.0 Mobile/15E148 Safari/604.1","iOS Mobile Phone"
"2022/11/26","11/26/2022 00:27:33","Dan Bongino Show Podcast",150,19676,"11/25/2022 17:21:12","Mozilla/5.0 (iPhone; CPU iPhone OS 16_0_2 like Mac OS X) AppleWebKit/605.1.15 (KHTML, like Gecko) Version/16.0 Mobile/15E148 Safari/604.1","iOS Mobile Phone"
"2022/11/26","11/26/2022 04:28:43","Dan Bongino Show Podcast",165,20008,"11/17/2022 20:12:41","Mozilla/5.0 (iPhone; CPU iPhone OS 16_0_2 like Mac OS X) AppleWebKit/605.1.15 (KHTML, like Gecko) Version/16.0 Mobile/15E148 Safari/604.1","iOS Mobile Phone"
"2022/11/26","11/26/2022 20:24:09","Dan Bongino Show Podcast",0,"","11/26/2022 17:02:21","Mozilla/5.0 (iPhone; CPU iPhone OS 15_6_1 like Mac OS X) AppleWebKit/605.1.15 (KHTML, like Gecko) Version/15.6.1 Mobile/15E148 Safari/604.1","iOS Mobile Phone"
"2022/11/26","11/26/2022 22:37:05","Dan Bongino Show Podcast",213,20070,"11/25/2022 10:40:54","Mozilla/5.0 (iPhone; CPU iPhone OS 15_6_1 like Mac OS X) AppleWebKit/605.1.15 (KHTML, like Gecko) Version/15.6.1 Mobile/15E148 Safari/604.1","iOS Mobile Phone"
"2022/11/28","11/28/2022 15:04:54","Dan Bongino Show Podcast",62.3,20214,"11/15/2022 22:40:06","Mozilla/5.0 (iPhone; CPU iPhone OS 15_6_1 like Mac OS X) AppleWebKit/605.1.15 (KHTML, like Gecko) Version/15.6.1 Mobile/15E148 Safari/604.1","iOS Mobile Phone"
"2022/11/29","11/29/2022 21:49:36","Dan Bongino Show Podcast",0,"","11/25/2022 03:55:51","Mozilla/5.0 (iPhone; CPU iPhone OS 16_1_1 like Mac OS X) AppleWebKit/605.1.15 (KHTML, like Gecko) Version/16.1 Mobile/15E148 Safari/604.1","iOS Mobile Phone"
"2022/11/30","11/30/2022 23:45:38","Dan Bongino Show Podcast",135,20569,"11/25/2022 08:56:56","Mozilla/5.0 (iPhone; CPU iPhone OS 16_0 like Mac OS X) AppleWebKit/605.1.15 (KHTML, like Gecko) CriOS/107.0.5304.101 Mobile/15E148 Safari/604.1","iOS Mobile Phone"
"2022/12/01","12/01/2022 02:06:23","Dan Bongino Show Podcast",160.5,20577,"12/01/2022 02:01:35","Mozilla/5.0 (iPhone; CPU iPhone OS 16_1_1 like Mac OS X) AppleWebKit/605.1.15 (KHTML, like Gecko) Version/16.1 Mobile/15E148 Safari/604.1","iOS Mobile Phone"
"2022/12/01","12/01/2022 03:20:37","Dan Bongino Show Podcast",0,"","11/30/2022 22:06:07","Mozilla/5.0 (iPhone; CPU iPhone OS 16_1_1 like Mac OS X) AppleWebKit/605.1.15 (KHTML, like Gecko) Version/16.1 Mobile/15E148 Safari/604.1","iOS Mobile Phone"
"2022/12/01","12/01/2022 05:17:07","Dan Bongino Show Podcast",65.02,20591,"12/01/2022 05:03:07","Mozilla/5.0 (iPhone; CPU iPhone OS 15_6_1 like Mac OS X) AppleWebKit/605.1.15 (KHTML, like Gecko) Version/15.6.1 Mobile/15E148 Safari/604.1","iOS Mobile Phone"
"2022/12/01","12/01/2022 20:37:16","Dan Bongino Show Podcast",140.25,20035,"12/01/2022 07:51:59","Mozilla/5.0 (iPhone; CPU iPhone OS 16_1_1 like Mac OS X) AppleWebKit/605.1.15 (KHTML, like Gecko) Version/16.1 Mobile/15E148 Safari/604.1","iOS Mobile Phone"
"2022/12/01","12/01/2022 21:26:07","Dan Bongino Show Podcast",150,20673,"12/01/2022 19:34:30","Mozilla/5.0 (Linux; Android 12; SM-A326U) AppleWebKit/537.36 (KHTML, like Gecko) Chrome/107.0.0.0 Mobile Safari/537.36","Android Mobile Phone"
"2022/12/02","12/02/2022 01:41:12","Dan Bongino Show Podcast",150,20690,"11/30/2022 21:36:37","Mozilla/5.0 (Linux; Android 12; SM-G991U) AppleWebKit/537.36 (KHTML, like Gecko) Chrome/107.0.0.0 Mobile Safari/537.36","Android Mobile Phone"
"2022/12/02","12/02/2022 05:34:09","Dan Bongino Show Podcast",150,20708,"12/01/2022 06:26:55","Mozilla/5.0 (iPhone; CPU iPhone OS 16_1_1 like Mac OS X) AppleWebKit/605.1.15 (KHTML, like Gecko) Version/16.1 Mobile/15E148 Safari/604.1","iOS Mobile Phone"
"2022/12/02","12/02/2022 18:39:30","Dan Bongino Show Podcast",93.59,19940,"12/01/2022 22:26:48","Mozilla/5.0 (iPhone; CPU iPhone OS 16_1_1 like Mac OS X) AppleWebKit/605.1.15 (KHTML, like Gecko) Version/16.1 Mobile/15E148 Safari/604.1","iOS Mobile Phone"
"2022/12/02","12/02/2022 23:03:10","Dan Bongino Show Podcast",135,20668,"12/01/2022 21:35:40","Mozilla/5.0 (iPhone; CPU iPhone OS 16_1_1 like Mac OS X) AppleWebKit/605.1.15 (KHTML, like Gecko) Version/16.1 Mobile/15E148 Safari/604.1","iOS Mobile Phone"
"2022/12/03","12/03/2022 00:43:54","Dan Bongino Show Podcast",127.8,20798,"12/01/2022 00:39:30","Mozilla/5.0 (iPhone; CPU iPhone OS 15_5 like Mac OS X) AppleWebKit/605.1.15 (KHTML, like Gecko) Version/15.5 Mobile/15E148 Safari/604.1","iOS Mobile Phone"
"2022/12/03","12/03/2022 13:23:25","Dan Bongino Show Podcast",77,20578,"12/02/2022 13:41:01","Mozilla/5.0 (iPhone; CPU iPhone OS 15_6_1 like Mac OS X) AppleWebKit/605.1.15 (KHTML, like Gecko) Version/15.6.1 Mobile/15E148 Safari/604.1","iOS Mobile Phone"
"2022/12/03","12/03/2022 18:09:51","Dan Bongino Show Podcast",150,19932,"12/03/2022 17:21:07","Mozilla/5.0 (Linux; Android 12; SM-G973U) AppleWebKit/537.36 (KHTML, like Gecko) Chrome/108.0.0.0 Mobile Safari/537.36","Android Mobile Phone"
"2022/12/03","12/03/2022 20:16:30","Dan Bongino Show Podcast",150,19960,"12/02/2022 23:09:41","Mozilla/5.0 (Windows NT 10.0; Win64; x64) AppleWebKit/537.36 (KHTML, like Gecko) Chrome/107.0.0.0 Safari/537.36 Edg/107.0.1418.56","Windows 10 Desktop"
"2022/12/03","12/03/2022 22:51:42","Dan Bongino Show Podcast",276.35,20907,"12/01/2022 11:02:00","Mozilla/5.0 (Linux; Android 10; SM-G965U) AppleWebKit/537.36 (KHTML, like Gecko) Chrome/107.0.0.0 Mobile Safari/537.36","Android Mobile Phone"
"2022/12/05","12/05/2022 02:47:07","Dan Bongino Show Podcast",159,21039,"12/04/2022 18:35:44","Mozilla/5.0 (iPhone; CPU iPhone OS 16_0 like Mac OS X) AppleWebKit/605.1.15 (KHTML, like Gecko) Version/16.0 Mobile/15E148 Safari/604.1","iOS Mobile Phone"
"2022/12/05","12/05/2022 04:26:57","Dan Bongino Show Podcast",135.15,21045,"12/05/2022 03:38:42","Mozilla/5.0 (iPhone; CPU iPhone OS 16_1_1 like Mac OS X) AppleWebKit/605.1.15 (KHTML, like Gecko) Version/16.1 Mobile/15E148 Safari/604.1","iOS Mobile Phone"
"2022/12/05","12/05/2022 17:06:23","Dan Bongino Show Podcast",107.8,21046,"12/01/2022 20:36:24","Mozilla/5.0 (iPhone; CPU iPhone OS 16_0 like Mac OS X) AppleWebKit/605.1.15 (KHTML, like Gecko) Version/16.0 Mobile/15E148 Safari/604.1","iOS Mobile Phone"
"2022/12/05","12/05/2022 20:12:46","Dan Bongino Show Podcast",62.3,21108,"12/03/2022 01:08:30","Mozilla/5.0 (iPhone; CPU iPhone OS 16_0 like Mac OS X) AppleWebKit/605.1.15 (KHTML, like Gecko) GSA/239.2.491423901 Mobile/15E148 Safari/604.1","iOS Mobile Phone"
"2022/12/05","12/05/2022 20:14:32","Dan Bongino Show Podcast",61.6,21109,"12/05/2022 20:00:15","Mozilla/5.0 (Linux; Android 10; SM-G960U) AppleWebKit/537.36 (KHTML, like Gecko) Chrome/107.0.0.0 Mobile Safari/537.36","Android Mobile Phone"
"2022/12/05","12/05/2022 20:37:35","Dan Bongino Show Podcast",56.07,20380,"12/05/2022 13:40:07","Mozilla/5.0 (iPhone; CPU iPhone OS 16_0_3 like Mac OS X) AppleWebKit/605.1.15 (KHTML, like Gecko) Version/16.0 Mobile/15E148 Safari/604.1","iOS Mobile Phone"
"2022/12/05","12/05/2022 21:25:55","Dan Bongino Show Podcast",162.52,21104,"12/02/2022 12:04:10","Mozilla/5.0 (iPhone; CPU iPhone OS 16_1_1 like Mac OS X) AppleWebKit/605.1.15 (KHTML, like Gecko) Version/16.1 Mobile/15E148 Safari/604.1","iOS Mobile Phone"
"2022/12/05","12/05/2022 22:23:25","Dan Bongino Show Podcast",127.5,18749,"11/30/2022 20:52:42","Mozilla/5.0 (iPhone; CPU iPhone OS 16_1_1 like Mac OS X) AppleWebKit/605.1.15 (KHTML, like Gecko) Version/16.1 Mobile/15E148 Safari/604.1","iOS Mobile Phone"
"2022/12/06","12/06/2022 20:31:53","Dan Bongino Show Podcast",135,21231,"12/06/2022 20:17:36","Mozilla/5.0 (Linux; Android 13; SM-G986U) AppleWebKit/537.36 (KHTML, like Gecko) Chrome/108.0.0.0 Mobile Safari/537.36","Android Mobile Phone"
"2022/12/07","12/07/2022 01:35:41","Dan Bongino Show Podcast",120,21274,"12/06/2022 20:28:06","Mozilla/5.0 (Linux; Android 12; SM-G990U) AppleWebKit/537.36 (KHTML, like Gecko) Chrome/108.0.0.0 Mobile Safari/537.36","Android Mobile Phone"
"2022/12/07","12/07/2022 16:22:56","Dan Bongino Show Podcast",239,21340,"12/07/2022 01:57:58","Mozilla/5.0 (Macintosh; Intel Mac OS X 10_15_6) AppleWebKit/605.1.15 (KHTML, like Gecko) Version/15.6.1 Safari/605.1.15","macOS Desktop"
"2022/12/07","12/07/2022 17:09:16","Dan Bongino Show Podcast",135,20816,"12/02/2022 20:46:15","Mozilla/5.0 (iPhone; CPU iPhone OS 16_0_2 like Mac OS X) AppleWebKit/605.1.15 (KHTML, like Gecko) Version/16.0 Mobile/15E148 Safari/604.1","iOS Mobile Phone"
"2022/12/07","12/07/2022 20:40:48","Dan Bongino Show Podcast",194.67,21271,"11/26/2022 20:07:37","Mozilla/5.0 (iPhone; CPU iPhone OS 16_1_1 like Mac OS X) AppleWebKit/605.1.15 (KHTML, like Gecko) Version/16.1 Mobile/15E148 Safari/604.1","iOS Mobile Phone"
"2022/12/08","12/08/2022 08:30:58","Dan Bongino Show Podcast",138.75,20642,"12/07/2022 08:33:28","Mozilla/5.0 (iPhone; CPU iPhone OS 16_1_1 like Mac OS X) AppleWebKit/605.1.15 (KHTML, like Gecko) Version/16.1 Mobile/15E148 Safari/604.1","iOS Mobile Phone"
"2022/12/08","12/08/2022 13:33:37","Dan Bongino Show Podcast",150.07,21445,"12/08/2022 03:15:45","Mozilla/5.0 (Windows NT 6.1; Win64; x64) AppleWebKit/537.36 (KHTML, like Gecko) Chrome/108.0.0.0 Safari/537.36","Windows 7 Desktop"
"2022/12/08","12/08/2022 13:54:40","Dan Bongino Show Podcast",135,21448,"12/08/2022 13:26:14","Mozilla/5.0 (Linux; Android 12; moto g stylus 5G) AppleWebKit/537.36 (KHTML, like Gecko) Chrome/104.0.0.0 Mobile Safari/537.36","Android Mobile Phone"
"2022/12/08","12/08/2022 18:21:59","Dan Bongino Show Podcast",159,20663,"12/08/2022 13:41:26","Mozilla/5.0 (Linux; Android 12; SM-G991U) AppleWebKit/537.36 (KHTML, like Gecko) Chrome/107.0.0.0 Mobile Safari/537.36","Android Mobile Phone"
"2022/12/08","12/08/2022 22:56:11","Dan Bongino Show Podcast",143.78,20869,"12/08/2022 15:47:54","Mozilla/5.0 (Linux; Android 12; TMAF025G) AppleWebKit/537.36 (KHTML, like Gecko) Chrome/99.0.4844.88 Mobile Safari/537.36","Android Mobile Phone"
"2022/12/08","12/08/2022 23:53:50","Dan Bongino Show Podcast",135,21518,"12/08/2022 22:28:28","Mozilla/5.0 (iPhone; CPU iPhone OS 15_3 like Mac OS X) AppleWebKit/605.1.15 (KHTML, like Gecko) CriOS/107.0.5304.101 Mobile/15E148 Safari/604.1","iOS Mobile Phone"
"2022/12/09","12/09/2022 00:15:39","Dan Bongino Show Podcast",77.04,21519,"12/07/2022 10:37:25","Mozilla/5.0 (iPhone; CPU iPhone OS 16_1_2 like Mac OS X) AppleWebKit/605.1.15 (KHTML, like Gecko) Version/16.1 Mobile/15E148 Safari/604.1","iOS Mobile Phone"
"2022/12/09","12/09/2022 03:20:42","Dan Bongino Show Podcast",64.08,21524,"11/25/2022 05:11:04","Mozilla/5.0 (iPhone; CPU iPhone OS 16_0 like Mac OS X) AppleWebKit/605.1.15 (KHTML, like Gecko) Version/16.0 Mobile/15E148 Safari/604.1","iOS Mobile Phone"
"2022/12/09","12/09/2022 05:26:26","Dan Bongino Show Podcast",143.1,21543,"12/07/2022 11:07:17","Mozilla/5.0 (Linux; Android 9; LG-H932) AppleWebKit/537.36 (KHTML, like Gecko) Chrome/108.0.0.0 Mobile Safari/537.36","Android Mobile Phone"
"2022/12/10","12/10/2022 01:02:39","Dan Bongino Show Podcast",135,21661,"12/09/2022 19:38:17","Mozilla/5.0 (Linux; Android 12; SM-N970U) AppleWebKit/537.36 (KHTML, like Gecko) Chrome/108.0.0.0 Mobile Safari/537.36","Android Mobile Phone"
"2022/12/10","12/10/2022 07:53:19","Dan Bongino Show Podcast",79.2,21677,"12/01/2022 21:44:53","Mozilla/5.0 (Linux; Android 10; SM-N960U) AppleWebKit/537.36 (KHTML, like Gecko) Chrome/108.0.0.0 Mobile Safari/537.36","Android Mobile Phone"
"2022/12/10","12/10/2022 16:15:26","Dan Bongino Show Podcast",239,21733,"12/10/2022 14:52:12","Mozilla/5.0 (Linux; Android 13; SM-G996U) AppleWebKit/537.36 (KHTML, like Gecko) Chrome/108.0.0.0 Mobile Safari/537.36","Android Mobile Phone"
"2022/12/10","12/10/2022 16:55:35","Dan Bongino Show Podcast",54.47,21741,"12/05/2022 12:43:56","Mozilla/5.0 (iPhone; CPU iPhone OS 16_1_1 like Mac OS X) AppleWebKit/605.1.15 (KHTML, like Gecko) FxiOS/107.2  Mobile/15E148 Safari/605.1.15","iOS Mobile Phone"
"2022/12/11","12/11/2022 13:42:37","Dan Bongino Show Podcast",165,21764,"12/10/2022 15:48:45","Mozilla/5.0 (Macintosh; Intel Mac OS X 10_15_6) AppleWebKit/605.1.15 (KHTML, like Gecko) Version/15.6.1 Safari/605.1.15","macOS Desktop"
"2022/12/12","12/12/2022 03:10:19","Dan Bongino Show Podcast",150,21883,"12/07/2022 00:00:52","Mozilla/5.0 (Macintosh; Intel Mac OS X 10_15_6) AppleWebKit/605.1.15 (KHTML, like Gecko) Version/15.6.1 Safari/605.1.15","macOS Desktop"
"2022/12/12","12/12/2022 22:08:32","Dan Bongino Show Podcast",150,21828,"12/12/2022 01:48:53","Mozilla/5.0 (iPhone; CPU iPhone OS 16_1 like Mac OS X) AppleWebKit/605.1.15 (KHTML, like Gecko) CriOS/108.0.5359.52 Mobile/15E148 Safari/604.1","iOS Mobile Phone"
"2022/12/13","12/13/2022 13:05:34","Dan Bongino Show Podcast",135,22061,"12/12/2022 18:07:40","Mozilla/5.0 (iPhone; CPU iPhone OS 15_6_1 like Mac OS X) AppleWebKit/605.1.15 (KHTML, like Gecko) Version/15.6.1 Mobile/15E148 Safari/604.1","iOS Mobile Phone"
"2022/12/13","12/13/2022 22:06:13","Dan Bongino Show Podcast",64.08,22128,"12/13/2022 01:07:15","Mozilla/5.0 (Linux; Android 12; SM-A716U) AppleWebKit/537.36 (KHTML, like Gecko) Chrome/108.0.0.0 Mobile Safari/537.36","Android Mobile Phone"
"2022/12/14","12/14/2022 13:07:36","Dan Bongino Show Podcast",0,"","12/03/2022 22:10:06","Mozilla/5.0 (iPhone; CPU iPhone OS 15_6_1 like Mac OS X) AppleWebKit/605.1.15 (KHTML, like Gecko) Version/15.6.1 Mobile/15E148 Safari/604.1","iOS Mobile Phone"
"2022/12/14","12/14/2022 14:30:38","Dan Bongino Show Podcast",73.6,22215,"12/08/2022 13:17:09","Mozilla/5.0 (iPhone; CPU iPhone OS 15_6_1 like Mac OS X) AppleWebKit/605.1.15 (KHTML, like Gecko) Version/15.6.1 Mobile/15E148 Safari/604.1","iOS Mobile Phone"
"2022/12/14","12/14/2022 17:11:17","Dan Bongino Show Podcast",212.25,22238,"12/09/2022 19:38:58","Mozilla/5.0 (iPhone; CPU iPhone OS 15_6_1 like Mac OS X) AppleWebKit/605.1.15 (KHTML, like Gecko) Version/15.6.1 Mobile/15E148 Safari/604.1","iOS Mobile Phone"
"2022/12/14","12/14/2022 17:36:52","Dan Bongino Show Podcast",148.5,21850,"12/12/2022 20:58:35","Mozilla/5.0 (iPhone; CPU iPhone OS 15_6_1 like Mac OS X) AppleWebKit/605.1.15 (KHTML, like Gecko) Version/15.6.1 Mobile/15E148 Safari/604.1","iOS Mobile Phone"
"2022/12/14","12/14/2022 20:43:04","Dan Bongino Show Podcast",135,22277,"12/14/2022 12:33:23","Mozilla/5.0 (Linux; Android 13; SM-S908U) AppleWebKit/537.36 (KHTML, like Gecko) Chrome/108.0.0.0 Mobile Safari/537.36","Android Mobile Phone"
"2022/12/15","12/15/2022 10:22:50","Dan Bongino Show Podcast",64.08,22374,"12/15/2022 10:16:06","Mozilla/5.0 (iPhone; CPU iPhone OS 16_1 like Mac OS X) AppleWebKit/605.1.15 (KHTML, like Gecko) GSA/241.0.491530414 Mobile/15E148 Safari/604.1","iOS Mobile Phone"
"2022/12/15","12/15/2022 20:14:20","Dan Bongino Show Podcast",150,22155,"12/14/2022 20:23:50","Mozilla/5.0 (iPhone; CPU iPhone OS 15_6_1 like Mac OS X) AppleWebKit/605.1.15 (KHTML, like Gecko) Version/15.6.1 Mobile/15E148 Safari/604.1","iOS Mobile Phone"
"2022/12/16","12/16/2022 10:49:28","Dan Bongino Show Podcast",135,22586,"12/16/2022 09:59:33","Mozilla/5.0 (iPhone; CPU iPhone OS 16_1_1 like Mac OS X) AppleWebKit/605.1.15 (KHTML, like Gecko) Version/16.1 Mobile/15E148 Safari/604.1","iOS Mobile Phone"
"2022/12/16","12/16/2022 14:59:34","Dan Bongino Show Podcast",135,22608,"12/16/2022 02:02:35","Mozilla/5.0 (Linux; Android 12; SM-G970U) AppleWebKit/537.36 (KHTML, like Gecko) Chrome/107.0.0.0 Mobile Safari/537.36","Android Mobile Phone"
"2022/12/16","12/16/2022 16:31:55","Dan Bongino Show Podcast",135,22634,"12/16/2022 16:04:47","Mozilla/5.0 (iPhone; CPU iPhone OS 16_1_1 like Mac OS X) AppleWebKit/605.1.15 (KHTML, like Gecko) Version/16.1 Mobile/15E148 Safari/604.1","iOS Mobile Phone"
"2022/12/16","12/16/2022 17:16:25","Dan Bongino Show Podcast",317.09,22647,"12/15/2022 11:21:56","Mozilla/5.0 (iPhone; CPU iPhone OS 15_6_1 like Mac OS X) AppleWebKit/605.1.15 (KHTML, like Gecko) Version/15.6.1 Mobile/15E148 Safari/604.1","iOS Mobile Phone"
"2022/12/16","12/16/2022 18:23:47","Dan Bongino Show Podcast",88,22664,"12/16/2022 17:50:20","Mozilla/5.0 (Macintosh; Intel Mac OS X 10_15_6) AppleWebKit/605.1.15 (KHTML, like Gecko) Version/15.6.1 Safari/605.1.15","macOS Desktop"
"2022/12/16","12/16/2022 18:29:11","Dan Bongino Show Podcast",135.15,22667,"12/16/2022 06:56:50","Mozilla/5.0 (Macintosh; Intel Mac OS X 10_15_7) AppleWebKit/605.1.15 (KHTML, like Gecko) Version/16.1 Safari/605.1.15","macOS Desktop"
"2022/12/16","12/16/2022 21:27:16","Dan Bongino Show Podcast",88,22700,"12/16/2022 20:44:37","Mozilla/5.0 (Windows NT 10.0; Win64; x64) AppleWebKit/537.36 (KHTML, like Gecko) Chrome/108.0.0.0 Safari/537.36","Windows 10 Desktop"
"2022/12/17","12/17/2022 00:36:28","Dan Bongino Show Podcast",135,22720,"12/16/2022 23:23:32","Mozilla/5.0 (Linux; Android 12; DE2118) AppleWebKit/537.36 (KHTML, like Gecko) Chrome/99.0.4844.58 Mobile Safari/537.36","Android Mobile Phone"
"2022/12/17","12/17/2022 01:34:22","Dan Bongino Show Podcast",158.34,22730,"12/16/2022 22:41:20","Mozilla/5.0 (Windows NT 10.0; Win64; x64) AppleWebKit/537.36 (KHTML, like Gecko) Chrome/108.0.0.0 Safari/537.36","Windows 10 Desktop"
"2022/12/17","12/17/2022 03:32:16","Dan Bongino Show Podcast",230.16,22743,"12/16/2022 19:49:16","Mozilla/5.0 (Linux; Android 13; SM-S901U) AppleWebKit/537.36 (KHTML, like Gecko) Chrome/108.0.0.0 Mobile Safari/537.36","Android Mobile Phone"
"2022/12/17","12/17/2022 03:50:24","Dan Bongino Show Podcast",227.7,22089,"12/15/2022 12:32:56","Mozilla/5.0 (iPhone; CPU iPhone OS 16_1_1 like Mac OS X) AppleWebKit/605.1.15 (KHTML, like Gecko) Version/16.1 Mobile/15E148 Safari/604.1","iOS Mobile Phone"
"2022/12/17","12/17/2022 04:34:14","Dan Bongino Show Podcast",135,22751,"12/14/2022 20:09:05","Mozilla/5.0 (Windows NT 10.0; Win64; x64) AppleWebKit/537.36 (KHTML, like Gecko) Chrome/108.0.0.0 Safari/537.36 Edg/108.0.1462.46","Windows 10 Desktop"
"2022/12/18","12/18/2022 02:34:48","Dan Bongino Show Podcast",66.24,22120,"12/16/2022 19:00:14","Mozilla/5.0 (iPhone; CPU iPhone OS 15_6_1 like Mac OS X) AppleWebKit/605.1.15 (KHTML, like Gecko) Version/15.6.1 Mobile/15E148 Safari/604.1","iOS Mobile Phone"
"2022/12/18","12/18/2022 03:24:17","Dan Bongino Show Podcast",148.5,22895,"12/10/2022 07:38:11","Mozilla/5.0 (iPhone; CPU iPhone OS 16_1_1 like Mac OS X) AppleWebKit/605.1.15 (KHTML, like Gecko) Version/16.1 Mobile/15E148 Safari/604.1","iOS Mobile Phone"
"2022/12/18","12/18/2022 17:04:23","Dan Bongino Show Podcast",239,22946,"12/16/2022 23:04:41","Mozilla/5.0 (Linux; Android 13; SM-S901U) AppleWebKit/537.36 (KHTML, like Gecko) Chrome/108.0.0.0 Mobile Safari/537.36","Android Mobile Phone"
"2022/12/19","12/19/2022 06:07:06","Dan Bongino Show Podcast",150,23017,"12/16/2022 19:31:16","Mozilla/5.0 (Linux; Android 13; SM-S908U) AppleWebKit/537.36 (KHTML, like Gecko) Chrome/108.0.0.0 Mobile Safari/537.36","Android Mobile Phone"
"2022/12/19","12/19/2022 13:42:11","Dan Bongino Show Podcast",239,23051,"12/15/2022 03:30:45","Mozilla/5.0 (Linux; Android 12; SM-A536U) AppleWebKit/537.36 (KHTML, like Gecko) Chrome/103.0.0.0 Mobile Safari/537.36","Android Mobile Phone"
"2022/12/19","12/19/2022 14:24:19","Dan Bongino Show Podcast",144.45,23056,"12/16/2022 21:24:18","Mozilla/5.0 (iPhone; CPU iPhone OS 16_1_1 like Mac OS X) AppleWebKit/605.1.15 (KHTML, like Gecko) Version/16.1 Mobile/15E148 Safari/604.1","iOS Mobile Phone"
"2022/12/19","12/19/2022 23:08:44","Dan Bongino Show Podcast",0,"","12/19/2022 01:32:49","Mozilla/5.0 (iPhone; CPU iPhone OS 16_1_1 like Mac OS X) AppleWebKit/605.1.15 (KHTML, like Gecko) Version/16.1 Mobile/15E148 Safari/604.1","iOS Mobile Phone"
"2022/12/20","12/20/2022 01:56:12","Dan Bongino Show Podcast",165,22754,"12/14/2022 21:49:39","Mozilla/5.0 (iPhone; CPU iPhone OS 16_1_1 like Mac OS X) AppleWebKit/605.1.15 (KHTML, like Gecko) Version/16.1 Mobile/15E148 Safari/604.1","iOS Mobile Phone"
"2022/12/20","12/20/2022 17:32:10","Dan Bongino Show Podcast",150,22890,"12/20/2022 16:24:58","Mozilla/5.0 (iPhone; CPU iPhone OS 15_6_1 like Mac OS X) AppleWebKit/605.1.15 (KHTML, like Gecko) Version/15.6.1 Mobile/15E148 Safari/604.1","iOS Mobile Phone"
"2022/12/20","12/20/2022 19:34:13","Dan Bongino Show Podcast",251.19,22650,"12/16/2022 18:45:42","Mozilla/5.0 (iPhone; CPU iPhone OS 16_0 like Mac OS X) AppleWebKit/605.1.15 (KHTML, like Gecko) GSA/241.0.491530414 Mobile/15E148 Safari/604.1","iOS Mobile Phone"
"2022/12/20","12/20/2022 20:24:50","Dan Bongino Show Podcast",135,23242,"12/16/2022 17:26:47","Mozilla/5.0 (iPhone; CPU iPhone OS 16_1_1 like Mac OS X) AppleWebKit/605.1.15 (KHTML, like Gecko) Version/16.1 Mobile/15E148 Safari/604.1","iOS Mobile Phone"
"2022/12/20","12/20/2022 20:45:13","Dan Bongino Show Podcast",135,23243,"12/18/2022 19:00:38","Mozilla/5.0 (Linux; Android 13; SM-G990U) AppleWebKit/537.36 (KHTML, like Gecko) Chrome/108.0.0.0 Mobile Safari/537.36","Android Mobile Phone"
"2022/12/20","12/20/2022 22:09:06","Dan Bongino Show Podcast",135,22220,"12/16/2022 21:45:22","Mozilla/5.0 (iPhone; CPU iPhone OS 16_0_2 like Mac OS X) AppleWebKit/605.1.15 (KHTML, like Gecko) Version/16.0 Mobile/15E148 Safari/604.1","iOS Mobile Phone"
"2022/12/20","12/20/2022 22:33:42","Dan Bongino Show Podcast",135,23259,"12/14/2022 22:56:53","Mozilla/5.0 (Macintosh; Intel Mac OS X 10_15_6) AppleWebKit/605.1.15 (KHTML, like Gecko) Version/15.6,2 Safari/605.1.15","macOS Desktop"
"2022/12/21","12/21/2022 10:12:48","Dan Bongino Show Podcast",135,23327,"12/15/2022 15:44:25","Mozilla/5.0 (iPhone; CPU iPhone OS 16_1_1 like Mac OS X) AppleWebKit/605.1.15 (KHTML, like Gecko) Version/16.1 Mobile/15E148 Safari/604.1","iOS Mobile Phone"
"2022/12/21","12/21/2022 14:07:18","Dan Bongino Show Podcast",150,23341,"12/16/2022 23:59:54","Mozilla/5.0 (iPhone; CPU iPhone OS 16_1_2 like Mac OS X) AppleWebKit/605.1.15 (KHTML, like Gecko) Version/16.1 Mobile/15E148 Safari/604.1","iOS Mobile Phone"
"2022/12/21","12/21/2022 17:12:48","Dan Bongino Show Podcast",135,22726,"12/16/2022 19:16:20","Mozilla/5.0 (Macintosh; Intel Mac OS X 10_15_6) AppleWebKit/605.1.15 (KHTML, like Gecko) Version/14.0 Safari/605.1.15","macOS Desktop"
"2022/12/21","12/21/2022 17:15:50","Dan Bongino Show Podcast",143.1,23357,"12/19/2022 09:56:10","Mozilla/5.0 (Linux; Android 13; SM-S906U) AppleWebKit/537.36 (KHTML, like Gecko) Chrome/107.0.0.0 Mobile Safari/537.36","Android Mobile Phone"
"2022/12/21","12/21/2022 19:22:58","Dan Bongino Show Podcast",165,23284,"12/15/2022 19:13:44","Mozilla/5.0 (iPhone; CPU iPhone OS 15_6 like Mac OS X) AppleWebKit/605.1.15 (KHTML, like Gecko) Version/15.6 Mobile/15E148 Safari/604.1","iOS Mobile Phone"
"2022/12/22","12/22/2022 01:16:48","Dan Bongino Show Podcast",54.47,22631,"12/19/2022 20:22:40","Mozilla/5.0 (Linux; Android 13; SM-S908U) AppleWebKit/537.36 (KHTML, like Gecko) Chrome/108.0.0.0 Mobile Safari/537.36","Android Mobile Phone"
"2022/12/22","12/22/2022 02:29:50","Dan Bongino Show Podcast",236.3,"","12/10/2022 12:24:31","Mozilla/5.0 (iPhone; CPU iPhone OS 15_6_1 like Mac OS X) AppleWebKit/605.1.15 (KHTML, like Gecko) Version/15.6.1 Mobile/15E148 Safari/604.1","iOS Mobile Phone"
"2022/12/22","12/22/2022 06:38:35","Dan Bongino Show Podcast",128.88,"","12/18/2022 23:07:06","Mozilla/5.0 (iPhone; CPU iPhone OS 16_1_1 like Mac OS X) AppleWebKit/605.1.15 (KHTML, like Gecko) Version/16.1 Mobile/15E148 Safari/604.1","iOS Mobile Phone"
"2022/12/22","12/22/2022 07:46:25","Dan Bongino Show Podcast",165,23009,"12/21/2022 11:10:32","Mozilla/5.0 (Linux; Android 9; SM-N960U) AppleWebKit/537.36 (KHTML, like Gecko) Chrome/108.0.0.0 Mobile Safari/537.36","Android Mobile Phone"
"2022/12/22","12/22/2022 14:50:07","Dan Bongino Show Podcast",66.24,23427,"12/16/2022 21:34:33","Mozilla/5.0 (Linux; Android 10; SM-A205U) AppleWebKit/537.36 (KHTML, like Gecko) Chrome/108.0.0.0 Mobile Safari/537.36","Android Mobile Phone"
"2022/12/22","12/22/2022 15:24:12","Dan Bongino Show Podcast",150,23270,"12/21/2022 17:11:03","Mozilla/5.0 (iPhone; CPU iPhone OS 15_6_1 like Mac OS X) AppleWebKit/605.1.15 (KHTML, like Gecko) Version/15.6.1 Mobile/15E148 Safari/604.1","iOS Mobile Phone"
"2022/12/22","12/22/2022 15:30:22","Dan Bongino Show Podcast",150,23464,"12/12/2022 00:53:57","Mozilla/5.0 (iPhone; CPU iPhone OS 16_1_1 like Mac OS X) AppleWebKit/605.1.15 (KHTML, like Gecko) Version/16.1 Mobile/15E148 Safari/604.1","iOS Mobile Phone"
"2022/12/22","12/22/2022 18:08:04","Dan Bongino Show Podcast",318,22736,"12/14/2022 20:01:02","Mozilla/5.0 (iPhone; CPU iPhone OS 15_6_1 like Mac OS X) AppleWebKit/605.1.15 (KHTML, like Gecko) Mobile/15E148","iOS Mobile Phone"
"2022/12/22","12/22/2022 22:52:27","Dan Bongino Show Podcast",55.08,22763,"12/19/2022 02:42:33","Mozilla/5.0 (Linux; Android 12; DE2118) AppleWebKit/537.36 (KHTML, like Gecko) Chrome/108.0.0.0 Mobile Safari/537.36","Android Mobile Phone"
"2022/12/23","12/23/2022 11:14:50","Dan Bongino Show Podcast",0,"","12/15/2022 01:08:27","Mozilla/5.0 (iPhone; CPU iPhone OS 16_0_2 like Mac OS X) AppleWebKit/605.1.15 (KHTML, like Gecko) Version/16.0 Mobile/15E148 Safari/604.1","iOS Mobile Phone"
"2022/12/23","12/23/2022 14:18:59","Dan Bongino Show Podcast",135.36,23559,"12/22/2022 16:11:47","Mozilla/5.0 (iPhone; CPU iPhone OS 15_6_1 like Mac OS X) AppleWebKit/605.1.15 (KHTML, like Gecko) Version/15.6.1 Mobile/15E148 Safari/604.1","iOS Mobile Phone"
"2022/12/23","12/23/2022 18:21:58","Dan Bongino Show Podcast",60.52,23185,"12/16/2022 19:58:06","Mozilla/5.0 (iPhone; CPU iPhone OS 16_1_1 like Mac OS X) AppleWebKit/605.1.15 (KHTML, like Gecko) Version/16.1 Mobile/15E148 Safari/604.1","iOS Mobile Phone"
"2022/12/24","12/24/2022 22:00:12","Dan Bongino Show Podcast",135,23083,"12/21/2022 16:46:48","Mozilla/5.0 (iPhone; CPU iPhone OS 15_6_1 like Mac OS X) AppleWebKit/605.1.15 (KHTML, like Gecko) Version/15.6.1 Mobile/15E148 Safari/604.1","iOS Mobile Phone"
"2022/12/25","12/25/2022 05:57:14","Dan Bongino Show Podcast",160.38,23105,"12/20/2022 19:00:19","Mozilla/5.0 (iPhone; CPU iPhone OS 16_1 like Mac OS X) AppleWebKit/605.1.15 (KHTML, like Gecko) CriOS/108.0.5359.112 Mobile/15E148 Safari/604.1","iOS Mobile Phone"
"2022/12/25","12/25/2022 19:49:25","Dan Bongino Show Podcast",297,23733,"12/15/2022 11:46:02","Mozilla/5.0 (Linux; Android 13; SM-G986U) AppleWebKit/537.36 (KHTML, like Gecko) Chrome/108.0.0.0 Mobile Safari/537.36","Android Mobile Phone"
"2022/12/25","12/25/2022 20:17:33","Dan Bongino Show Podcast",127.5,21616,"12/16/2022 16:38:28","Mozilla/5.0 (iPhone; CPU iPhone OS 15_6_1 like Mac OS X) AppleWebKit/605.1.15 (KHTML, like Gecko) Version/15.6.1 Mobile/15E148 Safari/604.1","iOS Mobile Phone"
"2022/12/26","12/26/2022 01:36:13","Dan Bongino Show Podcast",79.2,23133,"12/20/2022 02:22:05","Mozilla/5.0 (iPhone; CPU iPhone OS 15_6_1 like Mac OS X) AppleWebKit/605.1.15 (KHTML, like Gecko) Version/15.6.1 Mobile/15E148 Safari/604.1","iOS Mobile Phone"
"2022/12/28","12/28/2022 13:23:52","Dan Bongino Show Podcast",0,"","12/16/2022 17:09:48","Mozilla/5.0 (Linux; Android 13; SM-S901U) AppleWebKit/537.36 (KHTML, like Gecko) Chrome/108.0.0.0 Mobile Safari/537.36","Android Mobile Phone"
"2022/12/30","12/30/2022 18:47:09","Dan Bongino Show Podcast",0,"","12/16/2022 19:15:23","Mozilla/5.0 (Macintosh; Intel Mac OS X 10_15_6) AppleWebKit/605.1.15 (KHTML, like Gecko) Version/15.6.1 Safari/605.1.15","macOS Desktop"
"2022/12/31","12/31/2022 01:25:35","Dan Bongino Show Podcast",150,19025,"12/23/2022 22:45:24","Mozilla/5.0 (iPhone; CPU iPhone OS 15_6_1 like Mac OS X) AppleWebKit/605.1.15 (KHTML, like Gecko) Version/15.6.1 Mobile/15E148 Safari/604.1","iOS Mobile Phone"
"2023/01/01","01/01/2023 05:28:44","Dan Bongino Show Podcast",97.5,22160,"12/27/2022 17:38:48","Mozilla/5.0 (Linux; Android 13; SM-S901U1) AppleWebKit/537.36 (KHTML, like Gecko) Chrome/108.0.0.0 Mobile Safari/537.36","Android Mobile Phone"
"2022/09/04","09/04/2022 17:21:39","Stu Does America",0,"[order_number]","09/02/2022 22:30:57","Mozilla/5.0 (iPhone; CPU iPhone OS 15_6 like Mac OS X) AppleWebKit/605.1.15 (KHTML, like Gecko) GSA/214.5.452145058 Mobile/15E148 Safari/604.1","iOS Mobile Phone"
"2022/09/14","09/14/2022 17:38:10","Stu Does America",150,15735,"09/13/2022 04:49:45","Mozilla/5.0 (iPhone; CPU iPhone OS 15_6_1 like Mac OS X) AppleWebKit/605.1.15 (KHTML, like Gecko) Version/15.6.1 Mobile/15E148 Safari/604.1","iOS Mobile Phone"
"2022/09/17","09/17/2022 13:34:19","Stu Does America",99,15945,"09/14/2022 20:46:47","Mozilla/5.0 (iPhone; CPU iPhone OS 15_6_1 like Mac OS X) AppleWebKit/605.1.15 (KHTML, like Gecko) Version/15.6.1 Mobile/15E148 Safari/604.1","iOS Mobile Phone"
"2022/09/03","09/03/2022 02:56:01","Chad Prather",0,"[order_number]","08/31/2022 20:31:45","Mozilla/5.0 (iPhone; CPU iPhone OS 15_6_1 like Mac OS X) AppleWebKit/605.1.15 (KHTML, like Gecko) Version/15.6.1 Mobile/15E148 Safari/604.1","iOS Mobile Phone"
"2022/09/15","09/15/2022 10:12:41","Chad Prather",0,"","09/14/2022 12:06:08","Mozilla/5.0 (iPhone; CPU iPhone OS 15_6_1 like Mac OS X) AppleWebKit/605.1.15 (KHTML, like Gecko) Version/15.6.1 Mobile/15E148 Safari/604.1","iOS Mobile Phone"
"2022/10/14","10/14/2022 12:07:07","Chad Prather",135.79,17147,"10/13/2022 11:11:34","Mozilla/5.0 (iPhone; CPU iPhone OS 15_6_1 like Mac OS X) AppleWebKit/605.1.15 (KHTML, like Gecko) Version/15.6.1 Mobile/15E148 Safari/604.1","iOS Mobile Phone"
"2022/09/16","09/16/2022 06:05:33","The Rubin Report",135,15671,"09/16/2022 03:35:42","Mozilla/5.0 (iPhone; CPU iPhone OS 15_6_1 like Mac OS X) AppleWebKit/605.1.15 (KHTML, like Gecko) Version/15.6.1 Mobile/15E148 Safari/604.1","iOS Mobile Phone"
"2022/09/22","09/22/2022 14:49:38","The Rubin Report",127.5,16261,"09/17/2022 10:32:42","Mozilla/5.0 (iPhone; CPU iPhone OS 15_6 like Mac OS X) AppleWebKit/605.1.15 (KHTML, like Gecko) Version/15.6 Mobile/15E148 Safari/604.1","iOS Mobile Phone"
"2022/09/22","09/22/2022 21:52:10","The Rubin Report",121.68,"","09/19/2022 18:39:59","Mozilla/5.0 (iPhone; CPU iPhone OS 15_4_1 like Mac OS X) AppleWebKit/605.1.15 (KHTML, like Gecko) Version/15.4 Mobile/15E148 Safari/604.1","iOS Mobile Phone"
"2022/10/06","10/06/2022 16:52:22","The Rubin Report",190.1,16700,"10/06/2022 14:34:53","Mozilla/5.0 (iPhone; CPU iPhone OS 15_6_1 like Mac OS X) AppleWebKit/605.1.15 (KHTML, like Gecko) Version/15.6.1 Mobile/15E148 Safari/604.1","iOS Mobile Phone"
"2022/10/06","10/06/2022 20:31:40","The Rubin Report",135,16935,"10/04/2022 22:33:43","Mozilla/5.0 (iPhone; CPU iPhone OS 15_6_1 like Mac OS X) AppleWebKit/605.1.15 (KHTML, like Gecko) Version/15.6.1 Mobile/15E148 Safari/604.1","iOS Mobile Phone"
"2022/10/10","10/10/2022 20:50:07","The Rubin Report",127.5,17136,"10/04/2022 21:56:34","Mozilla/5.0 (iPhone; CPU iPhone OS 15_6_1 like Mac OS X) AppleWebKit/605.1.15 (KHTML, like Gecko) Version/15.6.1 Mobile/15E148 Safari/604.1","iOS Mobile Phone"
"2022/10/13","10/13/2022 18:30:24","The Rubin Report",110,17290,"10/05/2022 00:34:15","Mozilla/5.0 (iPhone; CPU iPhone OS 15_6 like Mac OS X) AppleWebKit/605.1.15 (KHTML, like Gecko) GSA/233.0.478398274 Mobile/15E148 Safari/604.1","iOS Mobile Phone"
"2022/11/16","11/16/2022 04:04:45","The Rubin Report",89,19185,"11/15/2022 17:40:00","Mozilla/5.0 (Macintosh; Intel Mac OS X 10_15_6) AppleWebKit/605.1.15 (KHTML, like Gecko) Version/15.5 Safari/605.1.15","macOS Desktop"
"2022/11/19","11/19/2022 13:12:46","The Rubin Report",180,19418,"11/09/2022 13:48:17","Mozilla/5.0 (iPhone; CPU iPhone OS 16_0 like Mac OS X) AppleWebKit/605.1.15 (KHTML, like Gecko) Version/16.0 Mobile/15E148 Safari/604.1","iOS Mobile Phone"
"2022/09/15","09/15/2022 01:15:54","Relatable with Allie Beth Stuckey",32.4,15923,"09/13/2022 09:35:01","Mozilla/5.0 (iPhone; CPU iPhone OS 15_6_1 like Mac OS X) AppleWebKit/605.1.15 (KHTML, like Gecko) Version/15.6.1 Mobile/15E148 Safari/604.1","iOS Mobile Phone"
"2022/09/19","09/19/2022 21:18:58","Relatable with Allie Beth Stuckey",169.15,16079,"09/18/2022 03:45:08","Mozilla/5.0 (iPhone; CPU iPhone OS 15_6_1 like Mac OS X) AppleWebKit/605.1.15 (KHTML, like Gecko) Version/15.6.1 Mobile/15E148 Safari/604.1","iOS Mobile Phone"
"2022/09/22","09/22/2022 13:50:33","Relatable with Allie Beth Stuckey",113.45,16103,"09/11/2022 12:28:51","Mozilla/5.0 (iPhone; CPU iPhone OS 15_6_1 like Mac OS X) AppleWebKit/605.1.15 (KHTML, like Gecko) Version/15.6.1 Mobile/15E148 Safari/604.1","iOS Mobile Phone"
"2022/10/23","10/23/2022 20:18:32","Relatable with Allie Beth Stuckey",136.43,17805,"10/21/2022 11:51:29","Mozilla/5.0 (iPhone; CPU iPhone OS 15_5 like Mac OS X) AppleWebKit/605.1.15 (KHTML, like Gecko) Version/15.5 Mobile/15E148 Safari/604.1","iOS Mobile Phone"
"2022/10/31","10/31/2022 16:05:39","Relatable with Allie Beth Stuckey",0,"","10/25/2022 17:35:16","Mozilla/5.0 (iPhone; CPU iPhone OS 15_6_1 like Mac OS X) AppleWebKit/605.1.15 (KHTML, like Gecko) Version/15.6.1 Mobile/15E148 Safari/604.1","iOS Mobile Phone"
"2022/11/14","11/14/2022 12:25:49","Relatable with Allie Beth Stuckey",165,19067,"11/11/2022 00:45:56","Mozilla/5.0 (iPhone; CPU iPhone OS 15_6_1 like Mac OS X) AppleWebKit/605.1.15 (KHTML, like Gecko) Version/15.6.1 Mobile/15E148 Safari/604.1","iOS Mobile Phone"
