<?xml version="1.0" encoding="utf-8"?>
<!-- Generator: Adobe Illustrator 22.0.1, SVG Export Plug-In . SVG Version: 6.00 Build 0)  -->
<svg version="1.1" id="Layer_1" xmlns="http://www.w3.org/2000/svg" xmlns:xlink="http://www.w3.org/1999/xlink" x="0px" y="0px"
	 viewBox="0 0 625 107.7" style="enable-background:new 0 0 625 107.7;" xml:space="preserve">
<style type="text/css">
	.st0{fill:#FFFFFF;}
</style>
<g>
	<path class="st0" d="M114.6,81.2c0,0.7-0.5,1.4-1.4,1.9c-0.9,0.5-1.6,0.9-2.2,1.2c-4.9,2.8-9.8,5.3-14.7,7.4
		c-4.9,2.1-10.1,3.9-15.5,5.5c-4.9,1.3-9.8,2.3-14.7,3.1c-5,0.8-9.9,1.2-14.9,1.2c-7.2,0-14-0.9-20.2-2.8
		c-6.3-1.9-11.7-4.7-16.3-8.5c-4.6-3.8-8.2-8.5-10.8-14.3C1.3,70.1,0,63.4,0,55.6c0-3.9,0.4-7.8,1.2-11.7C1.9,40,3,36.2,4.5,32.5
		c1.5-3.7,3.4-7.1,5.6-10.3c2.3-3.2,4.9-6.1,7.8-8.7c3.1-2.6,6.4-4.8,10.1-6.6c3.7-1.8,7.5-3.2,11.5-4.2c4-1,8-1.8,12.1-2.2
		C55.9,0.2,59.9,0,63.9,0c3.9,0,7.5,0.1,10.9,0.3c3.4,0.2,6.7,0.6,9.9,1.2C87.8,2.1,91.1,3,94.3,4c3.2,1,6.6,2.3,10.1,3.9
		c0.3,0.2,0.9,0.5,1.8,0.8c0.9,0.4,1.4,0.8,1.4,1.4c0,0.5-0.2,1.2-0.7,2.4c-0.5,1.1-1.1,2.3-1.7,3.7c-0.6,1.3-1.3,2.6-1.9,3.8
		c-0.6,1.2-1.1,2.1-1.4,2.5c-0.3,0.4-0.5,0.7-0.8,1c-0.3,0.3-0.6,0.5-1.1,0.5c-0.6,0-1.1-0.2-1.4-0.6s-0.4-0.9-0.4-1.4
		c0-0.6,0-1.2,0.1-1.8c0.1-0.6,0.1-1.2,0.1-1.8c0-2.7-1.3-4.9-3.8-6.5C92.2,10,89.2,8.8,85.9,8c-3.4-0.8-6.8-1.4-10.2-1.6
		c-3.4-0.3-6-0.4-7.8-0.4c-7.2,0-14.1,1-20.6,3c-6.5,2-12.2,5-17.1,9c-4.9,4-8.8,8.9-11.7,14.8c-2.9,5.9-4.3,12.7-4.3,20.5
		c0,6.9,1.2,12.9,3.6,18c2.4,5.1,5.6,9.4,9.7,12.8c4.1,3.4,9,5.9,14.5,7.6c5.6,1.7,11.6,2.6,18.1,2.6c3.7,0,7.6-0.3,11.6-0.9
		c4-0.6,8-1.5,12-2.6c4-1.1,7.8-2.4,11.6-3.9c3.7-1.5,7.2-3.2,10.4-5c0.2-0.1,0.7-0.4,1.6-0.9c0.9-0.5,1.8-1.1,2.8-1.6
		c0.9-0.5,2.2-1.3,3.9-2.2c0.3,0,0.5,0.2,0.6,0.5c0.1,0.4,0.2,0.8,0.2,1.2c0,0.5,0,0.9,0,1.4C114.6,80.7,114.6,81,114.6,81.2z"/>
	<path class="st0" d="M182.3,90.5c0,0.5-0.1,0.9-0.3,1.1c-0.2,0.2-0.6,0.4-1,0.6c-1,0.5-1.9,0.9-2.8,1.2c-0.9,0.4-1.9,0.8-2.8,1.2
		c-2.2,1-4.4,2-6.6,2.9c-2.2,0.9-4.4,2-6.6,3c-0.4,0.2-0.8,0.4-1.2,0.6c-0.5,0.2-0.9,0.3-1.4,0.3c-0.5,0-0.8-0.2-1-0.5
		c-0.2-0.3-0.3-0.7-0.3-1.1c0-0.5,0.2-1.1,0.7-2c0.5-0.9,0.8-1.5,1-2c2.1-4,3.3-8,3.8-12c0.5-4.1,0.7-8.3,0.7-12.6
		c0-2.4-0.2-4.9-0.6-7.4c-0.4-2.5-1.2-4.7-2.3-6.6c-1.1-1.9-2.6-3.5-4.5-4.8c-1.9-1.3-4.3-1.9-7.3-1.9c-1.9,0-4,0.4-6.2,1.2
		c-2.3,0.8-4.1,1.9-5.4,3.5c-0.7,0.8-1.2,1.8-1.6,2.9c-0.3,1.1-0.5,2.3-0.6,3.7c-0.1,1.3-0.1,2.6-0.1,3.9c0,1.3,0,2.3,0,3.2
		c0,0.7,0,1.4-0.1,2.2c0,0.7-0.1,1.4-0.1,2.2c-0.1,3.9-0.2,7.7-0.2,11.6c0,3.8-0.1,7.6-0.1,11.4c0,0.5-0.2,0.9-0.7,1.1
		c-0.5,0.2-1,0.4-1.4,0.6c-0.2,0.1-0.7,0.3-1.5,0.6c-0.8,0.3-1.7,0.7-2.6,1c-0.9,0.4-1.8,0.7-2.6,1c-0.8,0.3-1.2,0.5-1.3,0.5
		c-0.4,0-0.6-0.1-0.6-0.4c0-0.3-0.1-0.5-0.1-0.7c0-1.2,0-2.3,0.1-3.5c0.1-1.2,0.2-2.3,0.3-3.5c0.2-2.9,0.2-5.8,0.2-8.8
		c0-3,0-6,0.1-8.9c0.2-5.9,0.3-11.7,0.4-17.5c0.1-5.8,0.2-11.5,0.3-17.3c0.1-3.7,0.2-7.4,0.2-11c0-3.6,0.1-7.3,0.1-11
		c0-0.5,0-1.1,0-1.9c0-0.8,0-1.6-0.1-2.4c0-0.8-0.2-1.6-0.4-2.3c-0.2-0.7-0.5-1.2-0.9-1.5c-0.5-0.3-0.9-0.4-1.4-0.5
		c-0.5,0-1-0.1-1.4-0.1h-0.8c-0.3,0-0.5,0-0.8,0.1c-0.3,0-0.5,0.1-0.8,0.1c-0.2,0.1-0.5,0.1-0.8,0.1c-0.6,0-1.2-0.1-1.6-0.3
		c-0.5-0.2-0.7-0.7-0.7-1.4c0-0.4,0.2-0.7,0.5-0.9c0.4-0.3,0.8-0.5,1.2-0.6c0.5-0.1,0.9-0.2,1.4-0.3c0.5-0.1,0.9-0.2,1.1-0.3
		c2.6-0.6,5.2-1.3,7.6-1.9c2.5-0.6,5-1.4,7.5-2.2c0.5-0.2,1-0.4,1.8-0.6c0.7-0.2,1.3-0.3,1.8-0.3c0.5,0,0.8,0.2,1.1,0.5
		c0.3,0.4,0.4,0.8,0.4,1.2c0,0.2-0.1,0.5-0.3,0.8c-1.1,2.7-1.9,5.5-2.4,8.5c-0.5,2.9-0.9,5.9-1.1,8.9c-0.2,3-0.3,6-0.3,9.1
		c0,3-0.1,6-0.1,8.9c0,2-0.1,4-0.3,6c-0.2,2-0.2,4-0.1,6c0.5-0.5,1.1-0.8,1.8-1.1c0.6-0.3,1.3-0.6,1.9-0.9c2.8-1.4,5.8-2.9,9.1-4.3
		c3.2-1.4,6.4-2.2,9.6-2.2c3.3,0,6.1,0.7,8.2,2.2c2.1,1.5,3.8,3.4,5,5.8c1.2,2.3,2,5,2.4,7.8c0.4,2.9,0.6,5.7,0.6,8.4
		c0,1.8,0,3.8-0.1,5.9c-0.1,2.1-0.2,4.3-0.4,6.5c-0.2,2.2-0.4,4.4-0.7,6.6c-0.3,2.2-0.6,4.1-0.9,5.8l0.9-0.3
		c0.3-0.1,0.7-0.3,1.4-0.5s1.4-0.5,2.2-0.8c0.8-0.3,1.5-0.5,2.1-0.7c0.6-0.2,1.1-0.3,1.4-0.3c0.5,0,0.8,0.2,1.2,0.5
		C182.1,89.7,182.3,90.1,182.3,90.5z"/>
	<path class="st0" d="M249.2,96.5c0,0.5-0.6,0.9-1.7,1.5c-1.1,0.5-2.4,1-3.8,1.5c-1.4,0.5-2.8,0.8-4.1,1.1s-2.3,0.4-2.8,0.4
		c-3,0-5.4-0.8-7.2-2.3c-1.9-1.5-3.3-3.7-4.3-6.4c-0.1-0.2-0.2-0.6-0.4-1.2c-0.2-0.6-0.4-1-0.5-1.1c-0.7,0.5-1.4,0.9-1.9,1.5
		c-3,2.3-6.3,4.4-9.9,6.3c-3.6,1.9-7.4,2.9-11.2,2.9c-1.6,0-3.2-0.2-4.9-0.5c-1.6-0.4-3-0.9-4.3-1.7c-1.2-0.8-2.2-1.8-3-3.1
		c-0.8-1.3-1.2-2.9-1.2-4.8c0-3.5,1.1-6.7,3.3-9.5c2.2-2.8,4.9-5.2,8.1-7.2c3.2-2,6.5-3.6,10.1-4.9c3.6-1.3,6.9-2.2,9.7-2.8
		c1.1-0.2,2.2-0.4,3.2-0.6c1.1-0.2,2.1-0.5,3.1-0.7c0-2.2-0.2-4.2-0.5-6c-0.3-1.8-0.9-3.5-1.8-4.9c-0.9-1.4-2.1-2.5-3.7-3.2
		c-1.6-0.8-3.6-1.2-6-1.2c-1,0-2,0.1-3,0.3c-1,0.2-2.1,0.5-3,0.8c-1,0.3-1.9,0.6-2.8,0.8c-0.9,0.2-1.6,0.3-2.1,0.3
		c-0.5,0-0.7-0.4-0.7-1.1c0-1,0.3-2.2,0.8-3.7c0.5-1.5,1.2-2.5,1.9-3.2c0.5-0.4,1.5-0.7,2.8-1c1.4-0.3,2.8-0.5,4.4-0.7
		c1.6-0.1,3.1-0.2,4.5-0.3c1.4-0.1,2.5-0.1,3.2-0.1c4.1,0,7.3,0.5,9.5,1.5c2.2,1,3.8,2.4,4.9,4.3c1,1.9,1.6,4.2,1.8,7
		c0.2,2.8,0.3,5.9,0.3,9.4c0,2.5-0.1,5.1-0.2,7.6c-0.1,2.5-0.2,5.1-0.2,7.7c0,1.6,0.1,3.3,0.4,5.1s0.8,3.4,1.6,4.8
		c0.8,1.4,1.8,2.7,3,3.7c1.3,1,2.9,1.6,4.9,1.8c0.8,0.1,1.6,0.2,2.4,0.3C248.9,94.8,249.2,95.4,249.2,96.5z M225.7,69.1
		c-2,0.4-3.9,0.7-5.8,1.2c-1.9,0.4-3.7,1-5.5,1.7c-1.4,0.5-3,1.3-4.7,2.2c-1.7,0.9-3.2,2-4.7,3.2c-1.4,1.2-2.6,2.6-3.6,4.1
		c-0.9,1.5-1.4,3.2-1.4,5c0,2.1,0.8,3.7,2.4,5c1.6,1.3,3.4,1.9,5.4,1.9c2.2,0,4.3-0.5,6.3-1.4c2-0.9,3.8-2.1,5.3-3.5
		c2.3-2.1,3.8-4.3,4.5-6.6c0.8-2.3,1.3-5,1.6-7.8c0-0.5,0-1.4,0.1-2.5C225.8,70.5,225.8,69.7,225.7,69.1z"/>
	<path class="st0" d="M352.2,91.6c0,0.5,0,0.9-0.1,1.4c-0.1,0.5-0.5,0.8-1.1,1c-1.8,0.5-3.6,1.1-5.4,1.6c-1.8,0.5-3.6,1.1-5.4,1.8
		c-0.6,0.3-1.4,0.6-2.3,1c-0.9,0.4-1.8,0.8-2.8,1.2c-0.9,0.4-1.9,0.8-2.7,1.1c-0.9,0.3-1.6,0.5-2.1,0.6c-0.5-0.2-0.8-0.4-1-0.5
		c-0.2-0.2-0.3-0.5-0.3-1.1c0-0.5,0.3-1.4,0.9-2.6c0.6-1.2,1-2.1,1.2-2.7c1-3.2,1.6-6.5,1.8-9.9c0.2-3.3,0.3-6.7,0.3-10.1
		c0-2.7-0.1-5.6-0.3-8.6c-0.2-3-1-5.8-2.2-8.2c-1.1-2.1-2.7-3.7-4.7-5c-2.1-1.3-4.3-1.9-6.6-1.9c-1.4,0-2.7,0.1-3.7,0.3
		c-1,0.2-2,0.5-2.9,0.9c-0.9,0.4-1.8,0.9-2.7,1.4c-0.9,0.5-1.9,1.1-3.1,1.8c-0.2,0.2-0.3,0.4-0.4,0.5c0.1,0.6,0.1,1.3,0.1,1.9
		c0,0.5,0,1.1,0,1.6c0,6.1-0.1,12.2-0.2,18.3c-0.1,6-0.3,12.1-0.5,18.3c0,0.9-0.4,1.5-1.1,1.9c-0.2,0.1-0.7,0.3-1.6,0.6
		c-0.9,0.3-1.9,0.7-2.9,1c-1,0.4-2,0.7-2.9,0.9c-0.9,0.3-1.4,0.4-1.6,0.4c-0.4,0-0.5-0.3-0.5-0.8c0-0.5,0.1-0.9,0.1-1.1
		c0-4.1,0.2-8.1,0.5-12c0.4-3.9,0.5-7.9,0.5-12c0-3-0.1-6-0.2-8.9c-0.1-3-0.8-5.9-2.1-8.7c-0.9-2.1-2.2-3.7-4-4.9
		c-1.8-1.2-3.8-1.8-6-1.8c-1.8,0-3.7,0.5-5.5,1.4c-1.9,0.9-3.6,1.8-5,2.8c-0.3,0.2-0.5,0.3-0.7,0.5c-0.2,0.1-0.5,0.3-0.8,0.5
		c0.3,1.8,0.4,3.7,0.4,5.5s0,3.7,0,5.5c0,1,0,3-0.1,6.2c-0.1,3.1-0.2,6.4-0.4,9.8c-0.2,3.4-0.4,6.6-0.6,9.4
		c-0.2,2.8-0.4,4.5-0.6,4.9c0,0.1-0.4,0.3-1.3,0.7c-0.9,0.4-1.8,0.8-2.8,1.2c-1,0.5-2,0.9-2.9,1.2c-0.9,0.4-1.6,0.6-1.8,0.7h-0.4
		c-0.2-0.2-0.3-0.4-0.3-0.7c0.1-0.5,0.1-1,0.1-1.6c0-0.5,0-0.9,0.1-1.2c0-0.4,0.1-0.8,0.2-1.2c0.2-1.8,0.3-3.6,0.4-5.4
		c0.1-1.8,0.2-3.6,0.3-5.4c0.1-1.9,0.1-3.8,0.1-5.7c0-1.9,0-3.8,0-5.7c0-1.8,0-4.1,0-6.8c0-2.7-0.3-5.3-0.8-7.8
		c-0.5-2.5-1.5-4.7-2.9-6.5c-1.4-1.8-3.5-2.7-6.3-2.7c-0.6,0-1.2,0.1-1.8,0.2c-0.5,0.1-1.1,0.2-1.6,0.2c-0.5,0-0.8-0.2-0.9-0.6
		c-0.2-0.4-0.3-0.8-0.3-1.2c0-0.7,0.5-1.2,1.4-1.5s1.7-0.5,2.4-0.7c1.8-0.6,3.7-1.2,5.5-1.8c1.9-0.6,3.6-1.4,5.1-2.5
		c0.2-0.1,0.4-0.2,0.7-0.4c0.3-0.2,0.5-0.3,0.7-0.3l0.5,0.1c0.2,0.2,0.4,0.3,0.6,0.5c0.2,0.1,0.5,0.3,0.7,0.5c1.4,0.7,2.6,2,3.7,3.8
		c1.1,1.8,1.8,3.4,2.3,4.9c1.2-0.6,2.7-1.5,4.6-2.6c1.9-1.1,3.9-2.2,6-3.2c2.1-1,4.1-1.9,6.2-2.7c2-0.8,3.7-1.2,5.1-1.2
		s2.7,0.2,4.1,0.7c1.4,0.5,2.6,1.2,3.7,2.1c1.1,0.9,2.1,1.9,2.9,3c0.8,1.1,1.4,2.4,1.6,3.7c1.5-0.9,3.3-1.9,5.3-3
		c2-1.1,4-2.2,6.2-3.1s4.2-1.8,6.3-2.4c2.1-0.7,4-1,5.7-1s3.4,0.4,5,1.2c1.6,0.8,3,1.8,4.2,3c1.2,1.3,2.1,2.7,2.8,4.4
		c0.7,1.7,1.2,3.4,1.6,5.2c0.3,1.8,0.5,3.6,0.6,5.5c0.1,1.8,0.1,3.6,0.1,5.2c0,3.1,0,6.1-0.1,9.2c0,3.1-0.2,6.2-0.3,9.3
		c-0.1,0.9-0.2,1.8-0.3,2.6c-0.1,0.9-0.1,1.7-0.1,2.6c0,1.3,0.8,1.9,2.3,1.9c1.1,0,2.1-0.2,3.2-0.5c1-0.4,2.1-0.5,3.2-0.5
		C351.8,90.7,352.2,91,352.2,91.6z"/>
	<path class="st0" d="M415.1,69.4c0,4.6-0.7,8.8-2.2,12.7c-1.5,3.8-3.6,7.1-6.4,9.9c-2.8,2.8-6,4.9-9.9,6.4
		c-3.8,1.5-8.1,2.3-12.7,2.3c-4,0-7.5-0.7-10.6-2c-3.1-1.4-5.7-3.2-7.8-5.5c-2.1-2.3-3.7-5.2-4.7-8.5c-1.1-3.3-1.6-6.8-1.6-10.6
		c0-4.2,0.6-8.3,1.9-12.2c1.3-3.9,3.1-7.3,5.5-10.2c2.4-2.9,5.3-5.3,8.9-7c3.5-1.8,7.5-2.6,12-2.6c8.5,0,15.2,2.5,20.2,7.4
		C412.6,54.2,415.1,60.9,415.1,69.4z M405.1,77c0-2.8-0.5-5.9-1.4-9.2c-0.9-3.3-2.3-6.5-4.2-9.4c-1.9-2.9-4.1-5.4-6.7-7.3
		c-2.6-1.9-5.5-2.9-8.8-2.9c-2.7,0-5.1,0.5-7,1.4c-2,0.9-3.6,2.2-4.9,3.9c-1.3,1.6-2.2,3.5-2.8,5.8c-0.6,2.2-0.9,4.6-0.9,7.1
		c0,2.9,0.5,5.9,1.4,9.1c0.9,3.2,2.3,6.1,4.1,8.8c1.8,2.7,4,4.8,6.6,6.6c2.6,1.7,5.6,2.6,8.9,2.6c1.4,0,2.6-0.2,3.8-0.5
		c1.2-0.3,2.4-0.8,3.7-1.4c3.1-1.5,5.2-3.5,6.4-6S405.1,80.2,405.1,77z"/>
	<path class="st0" d="M486.6,92.7c0,0.8-0.3,1.3-0.9,1.6c-0.6,0.2-1.3,0.4-2,0.6c-2.3,0.7-4.7,1.6-7,2.5c-2.3,0.9-4.6,2-6.9,3
		c-0.2,0.1-0.4,0.2-0.6,0.3c-0.2,0.1-0.4,0.2-0.5,0.2c-0.4,0.1-0.9,0.3-1.6,0.7h-0.1c-0.5,0-0.8-0.2-0.9-0.7l-0.1-0.4
		c-0.1-0.1-0.1-0.2-0.1-0.4c0-0.2,0-0.4,0.1-0.5c1-3.6,1.7-7.4,2.2-11.3c0.5-3.9,0.7-7.8,0.7-11.6c0-1.4,0-3-0.1-4.6
		c0-1.6-0.1-3.3-0.3-5c-0.1-1.7-0.4-3.4-0.7-4.9c-0.3-1.6-0.7-3-1.3-4.4c-1-2.3-2.6-4.3-4.9-5.8c-2.3-1.5-4.8-2.2-7.4-2.2
		c-2.4,0-4.8,0.6-7,1.8c-2.2,1.2-4.1,2.6-5.8,4.3c0,6,0,11.9,0,17.7c0,5.9,0,11.8-0.1,17.7c0,0.9,0,1.8-0.1,2.6
		c-0.1,0.9-0.1,1.7-0.1,2.6c0,0.7-0.2,1.2-0.5,1.5c-0.4,0.2-1,0.5-1.8,0.8c-0.9,0.4-1.8,0.7-2.7,1c-0.9,0.3-1.8,0.6-2.6,0.9
		c-0.8,0.3-1.4,0.4-1.6,0.4s-0.4-0.2-0.4-0.7c0-0.4,0-0.6,0-0.8c0-3.3,0-6.7,0.1-9.9c0.1-3.3,0.1-6.6,0.1-9.9V69
		c0-1.7,0-3.6-0.1-5.8c-0.1-2.1-0.4-4.1-1-6c-0.6-1.8-1.5-3.4-2.8-4.7c-1.3-1.3-3.1-1.9-5.4-1.9c-0.4,0-0.7,0-1,0.1
		c-0.3,0-0.7,0.1-1,0.1h-0.4l-0.3-0.4l-0.4-0.9c0-1,0.5-1.6,1.4-1.9c1.8-0.5,3.6-1.2,5.3-1.9c1.7-0.7,3.3-1.6,4.9-2.6
		c0.3-0.2,0.7-0.5,1.2-0.9c0.5-0.4,0.9-0.6,1.2-0.6c0.1,0,0.4,0.1,0.9,0.4c1.6,0.7,3,2,4,3.8c1,1.8,1.9,3.5,2.5,5
		c1.5-0.9,3.3-1.8,5.4-2.8c2.1-1,4.2-1.9,6.5-2.7c2.3-0.8,4.5-1.5,6.7-2c2.2-0.5,4.2-0.8,5.9-0.8c3.6,0,6.4,0.9,8.3,2.7
		c1.9,1.8,3.2,4,4.1,6.7c0.8,2.7,1.3,5.5,1.4,8.6c0.1,3.1,0.1,5.9,0.1,8.4c0,3.4-0.1,6.8-0.2,10.1c-0.1,3.3-0.2,6.7-0.2,10.1
		c0,1.6,0.8,2.4,2.3,2.4c0.8,0,1.6-0.2,2.4-0.5c0.8-0.3,1.5-0.5,2.2-0.5c0.6,0,1,0.2,1.2,0.7C486.5,91.8,486.6,92.2,486.6,92.7z"/>
	<path class="st0" d="M512.7,44.5c0,2-0.1,3.9-0.3,5.9c-0.2,1.9-0.3,3.9-0.3,6c0,3,0,6-0.1,8.9c0,3-0.1,6-0.2,8.9
		c0,2.3,0,4.7-0.1,7.1c0,2.4-0.1,4.8-0.1,7.2c0,0.3,0,0.8,0,1.6c0,0.8,0,1.7,0,2.6c0,0.9,0,1.8-0.1,2.6c0,0.9-0.1,1.4-0.2,1.7
		c-0.2,0.7-0.8,1.2-1.9,1.6c-1.1,0.3-1.9,0.6-2.6,0.7c-0.5,0.2-1.3,0.5-2.6,0.9c-1.3,0.4-2.1,0.6-2.4,0.6c-0.7,0-1.1-0.3-1.2-1
		c0-0.7-0.1-1.3-0.1-1.8c0-2.9,0.1-5.7,0.3-8.5c0.2-2.8,0.3-5.6,0.3-8.5V67.4c0-2.1,0-4.2,0-6.5c0-2.3-0.2-4.6-0.7-6.6
		c-0.3-1-0.7-1.9-1.2-2.6c-0.5-0.8-1.4-1.2-2.6-1.2c-0.6,0-1.3,0.1-1.9,0.3c-0.6,0.2-1.3,0.3-1.9,0.3c-0.8,0-1.2-0.4-1.2-1.2
		c0-0.7,0.1-1.2,0.4-1.6c0.3-0.3,0.6-0.5,1-0.7c0.4-0.1,0.8-0.2,1.2-0.3c0.4,0,0.7-0.2,1-0.5c0.8-0.2,1.8-0.5,3-0.9
		c1.2-0.4,2.5-0.9,3.8-1.4c1.3-0.5,2.5-1,3.7-1.5c1.2-0.5,2.1-0.9,2.8-1.3c0.5-0.4,1.1-0.5,1.8-0.5c0.8,0,1.4,0.4,1.6,1.2
		C512.5,43.2,512.7,43.9,512.7,44.5z M513.8,15.7c0,2-0.7,3.7-2.2,5c-1.4,1.4-3.1,2-5,2s-3.5-0.7-4.9-2.1c-1.4-1.4-2.1-3-2.1-4.9
		c0-2,0.7-3.7,2-5.2c1.4-1.5,3.1-2.2,5.1-2.2c2.1,0,3.8,0.7,5.1,2.2C513.1,12,513.8,13.7,513.8,15.7z"/>
	<path class="st0" d="M586.4,98.1c0,0.5-0.3,0.8-1,1c-0.7,0.2-1.4,0.4-2.3,0.4c-0.9,0-1.7,0.1-2.5,0.1s-1.4,0-1.6,0
		c-0.4,0-0.7,0-1-0.1c-0.3,0-0.6-0.1-0.9-0.1c-1,0-1.8,0-2.4,0c-0.6,0-1.3-0.4-2-1.1c-2.5-2.4-5-4.9-7.3-7.5
		c-2.3-2.6-4.6-5.2-6.9-7.8c-0.9-1-1.9-2-2.8-3c-1-1-1.8-2-2.6-3.1c-1.8,1.7-3.7,3.3-5.8,4.9c-2.1,1.5-4.1,3.1-6.1,4.7
		c-3.2,2.5-6.3,5.1-9.4,7.6s-6.2,5.1-9.4,7.6c-0.4,0.3-0.9,0.7-1.8,1.4c-0.8,0.6-1.7,1.3-2.6,2c-0.9,0.7-1.8,1.3-2.6,1.8
		c-0.9,0.5-1.5,0.7-2,0.7c-1.1,0-1.6-0.6-1.6-1.8c0-0.5,0.1-1,0.4-1.5c0.3-0.6,0.7-1.2,1.3-1.6c0.6-0.4,1.2-0.8,1.7-1.3
		c0.5-0.4,0.9-0.7,1.2-1.1c0.4-0.4,0.8-0.7,1.2-1.1c0.6-0.5,1.2-1.1,1.8-1.6c0.6-0.5,1.2-1,1.8-1.4c3.8-3,7.5-6.1,11-9.3
		c3.6-3.2,7.1-6.4,10.6-9.5c0.3-0.3,0.7-0.7,1.3-1.2c0.6-0.5,1.2-1,1.8-1.6c0.6-0.6,1.2-1.1,1.8-1.6c0.5-0.5,0.9-0.9,1.1-1.2
		c-1.7-2.3-3.4-4.5-5.1-6.8c-1.7-2.3-3.3-4.6-4.9-6.9c-0.2-0.2-0.6-0.7-1.2-1.6c-0.6-0.9-1.2-1.9-1.9-2.9c-0.7-1-1.3-2-1.9-2.8
		c-0.6-0.9-0.9-1.3-0.9-1.4c-0.2,0.1-0.6,0.2-1.3,0.5c-0.7,0.2-1.4,0.5-2.2,0.7c-0.8,0.3-1.5,0.5-2.2,0.7c-0.7,0.2-1.1,0.3-1.2,0.3
		c-0.5,0.2-1,0.4-1.6,0.6c-0.6,0.2-1.1,0.3-1.6,0.3s-0.8-0.4-1-1.1c-0.2-0.7-0.3-1.2-0.3-1.5c0-0.5,0.2-0.8,0.6-1.1
		c0.4-0.3,0.7-0.5,1-0.5l11-4.5c1.1-0.5,2.1-0.9,3.1-1.3c1-0.4,2-0.8,3.1-1.1c0.1,0,0.2,0,0.2-0.1c0,0,0.1-0.1,0.2-0.1
		c0.4,0,0.7,0.3,1,0.9c0.3,0.6,0.6,1,0.7,1.3c1.8,3.8,3.9,7.5,6.3,11.2c2.4,3.7,4.9,7.1,7.5,10.4c0.7-0.7,1.5-1.4,2.2-2.1
		c0.8-0.7,1.5-1.4,2.2-2.1c2.4-2.5,4.8-5.1,7.2-7.6c2.4-2.5,4.8-5.1,7.1-7.7c0.1-0.1,0.3-0.4,0.7-0.8c0.4-0.5,0.7-0.9,1.2-1.4
		c0.4-0.5,0.8-0.9,1.2-1.3c0.4-0.4,0.6-0.5,0.8-0.5c0.9,0,1.4,0.5,1.6,1.5c0.2,1.3,0.3,2.5,0.3,3.7c0,1.2,0,2.4,0,3.7
		c0,0.7-0.1,1.2-0.3,1.6c-0.2,0.3-0.6,0.7-1,1.2c-1.9,1.7-3.8,3.5-5.6,5.2c-1.8,1.8-3.8,3.5-5.8,5.2c-1.4,1.2-2.7,2.3-4,3.3
		c-1.3,1-2.6,2.2-3.9,3.5c1.5,1.9,3.2,4,5.1,6.2c1.9,2.3,3.9,4.5,5.9,6.7c2,2.2,4.1,4.3,6.2,6.4c2.1,2,4.1,3.8,6,5.3
		c0.4,0.3,0.9,0.7,1.6,1.3C586.1,97,586.4,97.6,586.4,98.1z"/>
</g>
<g>
	<path class="st0" d="M625,30.9c0,2.4-0.5,4.6-1.4,6.7c-0.9,2.1-2.1,3.9-3.7,5.5s-3.4,2.8-5.5,3.7c-2.1,0.9-4.3,1.4-6.7,1.4
		s-4.6-0.5-6.7-1.4c-2.1-0.9-3.9-2.1-5.5-3.7s-2.8-3.4-3.7-5.5c-0.9-2.1-1.4-4.3-1.4-6.7s0.5-4.6,1.4-6.7c0.9-2.1,2.1-3.9,3.7-5.5
		s3.4-2.8,5.5-3.7c2.1-0.9,4.3-1.4,6.7-1.4s4.6,0.5,6.7,1.4c2.1,0.9,3.9,2.1,5.5,3.7s2.8,3.4,3.7,5.5C624.5,26.3,625,28.5,625,30.9z
		 M623,30.9c0-2.1-0.4-4.1-1.2-6c-0.8-1.9-1.9-3.5-3.3-4.8c-1.4-1.4-3-2.5-4.8-3.3c-1.9-0.8-3.8-1.2-6-1.2s-4.1,0.4-6,1.2
		c-1.9,0.8-3.5,1.9-4.8,3.3c-1.4,1.4-2.5,3-3.3,4.8c-0.8,1.9-1.2,3.8-1.2,6s0.4,4.1,1.2,6c0.8,1.9,1.9,3.5,3.3,4.9
		c1.4,1.4,3,2.5,4.9,3.3c1.9,0.8,3.8,1.2,6,1.2s4.1-0.4,6-1.2c1.9-0.8,3.5-1.9,4.9-3.3c1.4-1.4,2.5-3,3.3-4.9
		C622.6,35,623,33,623,30.9z M613.7,39.8c-0.2,0-0.5-0.1-0.8-0.3c-0.3-0.2-0.5-0.4-0.7-0.7c-0.2-0.3-0.4-0.5-0.6-0.8
		s-0.3-0.5-0.5-0.7l-3.7-5.4h-2.8V37c0,0.9,0.2,1.4,0.6,1.6c0.4,0.2,1,0.3,1.8,0.3v0.9h-7.8v-0.9c0.7,0,1.3-0.1,1.7-0.3
		c0.4-0.2,0.6-0.7,0.6-1.5V23.7c0-0.7-0.2-1.1-0.7-1.3c-0.5-0.2-1-0.3-1.6-0.3v-0.9h10.1c0.7,0,1.5,0.1,2.2,0.3
		c0.7,0.2,1.3,0.4,1.9,0.8c0.6,0.4,1,0.9,1.3,1.4c0.3,0.6,0.5,1.3,0.5,2.1c0,1.4-0.4,2.5-1.1,3.4c-0.7,0.8-1.7,1.5-3,1.9l3.4,5.3
		c0.3,0.5,0.8,1.1,1.3,1.6c0.5,0.6,1.1,0.8,1.8,0.8v0.9H613.7z M611.3,26.4c0-1.2-0.3-2.1-0.9-2.7c-0.6-0.7-1.5-1-2.7-1h-3.2v8.1
		h3.3c0.7,0,1.2-0.1,1.7-0.4c0.4-0.2,0.8-0.6,1.1-1c0.3-0.4,0.4-0.9,0.6-1.4C611.3,27.6,611.3,27,611.3,26.4z"/>
</g>
</svg>
